navio,115,23,0|script|Baú#navio|111
{
    set @npc$, "Baú";
    set @map$, "navio007";
    set @x, 60;
    set @y, 24;
    mes "[" + strcharinfo(0) + "]";
    mes "\"Parece que não posso usá-lo aqui...\"";
    close;
}
