//------- Placa da fonte do mapa 010-4---------------------
// Por Xtreem
// Vou usar esta placa em uma quest de deve envolver um bucado de npc.
// Ainda não decidi quantos.


010-4,48,111,0|script|#PlacaFonte|300
{
    mes "[Placa]";
    mes "A agua desta fonte é muito especial.";
    mes "Por favor não toque nesta agua.";
    close;
}
