//  Criado por: Cardinalli
//  Revisão: Lunovox <rui.gravata@gmail.com>
//  Pré-Requisitos: LVL36+
//  Pós-Requisitos: @Cogumelo=40 @BebidaCactus=100 @GarrafaDeAgua=30 @Espinho=60
//  Premio: 1 Chapeu de Cogumelo Maligno
//

halicarnazo,114,27,0|script|Joaquim|133
{
    set @Cogumelo, 566;
    set @BebidaCactus, 501;
    set @GarrafaDeAgua, 541;
    set @Espinho, 613;
    set @RemedioCura, 0; // Falta criar o item, por isso o ID não está definido!
    set @ChapeuCogumeloMaligno, 629;

    if (QUEST_ChapeuCogMaligno == 0 && BaseLevel < 36) goto L_semLevel;
    if (QUEST_ChapeuCogMaligno == 1) goto L_achouLista;
    if (QUEST_ChapeuCogMaligno == 2) goto L_Retorno;
    if (QUEST_ChapeuCogMaligno == 3) goto L_Fim;
goto L_iniciaQuest;

L_semLevel:
    mes "[Joaquim]";
    mes "\"Halicarnazo está em guerra e minha esposa saiu ferida. Cuidado!\"";
close;

L_iniciaQuest:
    mes "[Joaquim]";
    mes "\"Ohhhhh..... Por favor me ajude!!! Minha mulher está ferida!.\"";
    next;
    mes "[" + strcharinfo(0) + "]";
    mes "\"Acalme-se senhor, você está bem?\"";
    next;
    mes "[Joaquim]";
    mes "\"Estou sim, mas minha mulher está muito ferida, você pode me ajudar?\"";
    next;
    mes "[" + strcharinfo(0) + "]";
    menu
    "Oh, senhor, mas é claro que sim!", L_sim,
    "Quem garante que você não está me enganando?", -;
    mes "";
    mes "[Joaquim]";
    mes "\"Desculpe te atrapalhar.\"";
close;

L_sim:
    mes "[Joaquim]";
    mes "\"Eu conheço uma poção caseiro que minha avó me ensinou, cura qualquer coisa. Mas eu não lembro os ingredientes, eu tenho uma lista em casa. Vou procura-lo, volte daqui alguns minutos.\"";
    set QUEST_ChapeuCogMaligno, 1;
close;

L_achouLista:
    mes "[" + strcharinfo(0) + "]";
    mes "\"Achou a lista de ingredientes?\"";
    next;
    mes "[Joaquim]";
    mes "\"Ahhh sim, está aqui! Os itens são:\"";
    mes " * 40 Cogumelos";
    mes " * 100 Bebida de Cactus";
    mes " * 30 Guarrafas de Água";
    mes " * 60 Espinhos";
    next;
    mes "[" + strcharinfo(0) + "]";
    menu
    "Ahh, é muita coisa", -,
    "Deixa comigo!", L_Quest;
    mes "";
    mes "[Joaquim]";
    mes "\"Aff, agora quem irá ajudar minha esposinha?\"";
close;

L_Quest:
    mes "[Joaquim]";
    mes "\"Volte rápido, cada minuto é precioso para a vida de minha esposa!\"";
    set QUEST_ChapeuCogMaligno, 2;
close;

L_Retorno:
    mes "[Joaquim]";
    mes "\"Eae "+ strcharinfo(0) +", trouxe os itens que pedi?\"";
    next;
    mes "[" + strcharinfo(0) + "]";
    menu
    "Aqui está, Joaquim", -,
    "Não, me esqueci completamente", L_naotrouxe;
    if (countitem(@Cogumelo)<40 || countitem(@BebidaCactus)<100 || countitem(@GarrafaDeAgua)<30 || countitem(@Espinho)<60) goto_naotem;
    getinventorylist;
    if (@inventorylist_count >=100) goto L_semlugar;
    delitem @Cogumelo, 40;
    delitem @BebidaCactus, 100;
    delitem @GarrafaDeAgua, 30;
    delitem @Espinho, 60;
    getitem @ChapeuCogumeloMaligno, 1;
    getitem @RemedioCura, 1;
    set QUEST_ChapeuCogMaligno, 3;
    mes "[Joaquim]";
    mes "\"Obrigado "+ strcharinfo(0) +" pelos itens.\"";
    next;
    mes "[Joaquim]";
    mes "\"Será que você pode levar a poção para Yumi?\"";
    next;
    mes "[Joaquim]";
    mes "\"Eu preciso trabalhar, e não tenho tempo para levar para ela, se eu sair não consigo manter minha familia!\"";
    next;
    mes "[Joaquim]";
    mes "\"Ahhhh.... Ia me esquecendo! Pegue meu chapéu como recompensa. Ele será útil para ir à festas ou eventos. Tchau "+ strcharinfo(0) +", por favor leve a poção a Yumi! Ela te dará uma bela recompensa.\"";
close;

L_naotrouxe:
    mes "[Joaquim]";
    mes "\"Você não trouxe os itens que pedi? Saiba que está colocando uma vida em risco!\"";
    next;
    mes "\"Por favor me traga os itens, lembrando que são:\"";
    next;
    mes " * 40 Cogumelos";
    mes " * 100 Bebida de Cactus";
    mes " * 30 Guarrafas de Água";
    mes " * 60 Espinhos";
close;

L_naotem:
    mes "[Joaquim]";
    mes "\"Tentando me enganar! Você não trouxe os itens.\"";
    next;
    mes "\"Traga-os agora, lembrando que eles são:\"";
    mes " * 40 Cogumelos";
    mes " * 100 Bebida de Cactus";
    mes " * 30 Guarrafas de Água";
    mes " * 60 Espinhos";
close;

L_Fim:
    mes "[Joaquim]";
    mes "\"Obrigado por salvar minha esposa.\"";
close;

}
