// quest Mackey por Sky
// NPCs necessários para quest: Mestres de classes: MestreDosMagos.txt, MestreDosDruidas.conf, MestreDosNinjas.conf, MestreDosCavaleiros.conf, MestreDosPaladinos.conf, MestreDosNecromantes.conf, Mackey.conf


org016,30,44,0|script|Mackey|156,10,10
{
    if (#GRINGO) goto L_CF;

    if (QUEST_Classe == 0 && BaseLevel < 40) goto L_semLevel;
    if (QUEST_Classe == 1) goto L_Retorno;
    if (QUEST_Classe >= 2 && QUEST_Classe <= 3) goto L_FimQuest;
    if (QUEST_Classe == 4) goto L_JatemClasse;
    goto L_iniciaQuest;

L_semLevel:
    mes "[Mestre Mackey]";
    mes "\"Olá viajante.\"";
    close;

L_JatemClasse:
    mes "[Mestre Mackey]";
    mes "=O \"Que moraaaal! Você conseguiu ser aprendiz de um mestre de classe.\"";
    next;
    mes "[Mestre Mackey]";
    mes "X-( \"Que inveeeeja!\"";
    close;

L_FimQuest:
    mes "[Mestre Mackey]";
    mes "=) \"Boa sorte! Você vai precisar!\"";
    next;
    mes "[Mestre Mackey]";
    mes "=þ \"Pois faz décadas que os mestres de classe não aceitam nenhum aprendiz!\"";
    close;

L_iniciaQuest:
    mes "Você vê um homem muito simpático.";
    next;
    mes "[Mestre Mackey]";
    mes "\"Olá aventureiro! Meu nome é Mackey! Prazer em conhecê-lo!\"";
    next;
    mes "[" + strcharinfo(0) + "]";
    menu
        "Mackey?",         L_Explicacao,
        "(¬.¬) Cai fora!", L_TudoBem;

L_TudoBem:
    mes "";
    mes "[Mestre Mackey]";
    mes "=[ \"Tudo bem!\"";
    close;

L_Explicacao:
    mes "";
    mes "[" + strcharinfo(0) + "]";
    mes "(¬.¬) \"O que você quer?\"";
    next;
    mes "[Mestre Mackey]";
    mes "=) \"Você parece uma pessoa forte. Já pensou em escolher participar de uma classe?\"";
    next;
    mes "[" + strcharinfo(0) + "]";
    mes "(*.*) \"Como faço para fazer parte de uma classe?\"";
    next;
    mes "[Mestre Mackey]";
    mes "(^~^) \"Posso te dizer, mas esta informação não será grátis!\"";
    next;
    mes "[" + strcharinfo(0) + "]";
    menu
        "(T_T) Quem devo matar para ter uma classe?",            L_Itens,
        "(T_T) Blá! Eu não pago por informações, só por itens!", L_Itens2;

L_Itens2:
    mes "";
    mes "[Mestre Mackey]";
    mes "(^~^) \"Ok! Sei que um diz você me procurará!\"";
    next;
    mes "[Mestre Mackey]";
    mes "(^~^) \"E neste dia eu cobrarei dobrado de você!\"";
    next;
    mes "[" + strcharinfo(0) + "]";
    menu
        "(X.x) Tá bom! Tá bom! O que eu preciso fazer?", L_Itens,
        "(T_T) Blá! Quem liga? Sou rico!",               L_Rico;

L_Rico:
    mes "";
    mes "[Mestre Mackey]";
    mes "(^~^) \"Ok! Até logo!\"";
    close;

L_Itens:
    mes "";
    mes "[Mestre Mackey]";
    mes "\"Bem, preciso que você me traga: 20 [" + getitemlink("OvoDeCobraDaCaverna") + "] e 30 [" + getitemlink("PeloBranco") + "].\"";
    next;
    mes "[" + strcharinfo(0) + "]";
    menu
        "(X.x) Tudo bem, já te trago!", L_Trago,
        "(T_T) Ahh, esquece.",          L_Fechar;

L_Fechar:
    close;

L_Trago:
    mes "";
    mes "[Mestre Mackey]";
    mes "\"Não demore!\"";
    set QUEST_Classe, 1;
    close;

L_Retorno:
    mes "[Mestre Mackey]";
    mes "\"Trouxe os itens que te pedi?\"";
    next;
    mes "[" + strcharinfo(0) + "]";
    menu
        "Sim, aqui estão!", L_Pronto,
        "Acho que esqueci os itens necessários.", L_Esqueci;

L_Esqueci:
    mes "";
    mes "[Mestre Mackey]";
    mes "=L \"Você não trouxe os itens?";
    mes "Só posso te dar minhas informações se trouxer-me:";
    mes " * 30 [" + getitemlink("PeloBranco") + "]\"";
    mes " * 20 [" + getitemlink("OvoDeCobraDaCaverna") + "]";
    close;

L_Pronto:
    if (countitem("PeloBranco")          < 30 ||
        countitem("OvoDeCobraDaCaverna") < 20
    ) goto L_Perdi;

    delitem "PeloBranco",          30;
    delitem "OvoDeCobraDaCaverna", 20;
    set QUEST_Classe, 2;

    mes "";
    mes "[Mestre Mackey]";
    mes "(^_^) \"Bom! Agora que recebi meu pagamento posso abrir o bico!\"";
    next;
    mes "[Mestre Mackey]";
    mes "\"Neste mundo existem 6 mestres de classe.\"";
    next;
    mes "[Mestre Mackey]";
    mes "\"Os mestres são:";
    mes " * Mestre dos Cavaleiros";
    mes " * Mestre dos Druidas";
    mes " * Mestre dos Ninjas";
    mes " * Mestre dos Paladinos";
    mes " * Mestre dos Magos";
    mes " * Mestre dos Necromantes\"";
    next;
    mes "[Mestre Mackey]";
    mes "\"Você deve encontrar um destes mestres e tentar convencê-lo a ser aprendiz dele.\"";
    next;
    mes "[Mestre Mackey]";
    mes "\"Seja qual for a classe que você escolher, ja vou avisando que você só poderá escolher apenas uma classe. Depois de escolhido nem adianta reclamar se tiver feito uma escolha ruim.\"";
    next;
    mes "[Mestre Mackey]";
    mes "\"Embora existe uma lenda que diz que uma pessoa lendária possuía os poderes de todas as classes.\"";
    next;
    mes "[Mestre Mackey]";
    mes "\"Se você conseguir convencer o mestre da classe que você escolheu a ser seu aprendiz dele, ele te dará um Grimorium contendo os segredos mágicos da classes.\"";
    next;
    mes "[Mestre Mackey]";
    mes "(^_^) \"Bom é isso!\"";
    next;
    mes "[" + strcharinfo(0) + "]";
    mes "(T_T) \"Você só vai me ensinar isso?\"";
    next;
    mes "[Mestre Mackey]";
    mes "(^_^) \"Sim!\"";
    next;
    mes "[" + strcharinfo(0) + "]";
    mes "(T_T) \"Não sabe onde posso encontrar estes mestres?\"";
    next;
    mes "[Mestre Mackey]";
    mes "(^_^) \"Não!\"";
    next;
    mes "[Mestre Mackey]";
    mes "=þ \"Em todo caso, boa sorte! Você vai precisar! Pois faz decadas que os mestres de classe não aceitam nenhum aprendiz!\"";
    close;

L_Perdi:
    mes "";
    mes "[" + strcharinfo(0) + "]";
    mes "=S \"Acho que perdi alguns itens em algum lugar!\"";
    close;

L_CF:
	callfunc "#EnMackey";
	end;

OnTouch:
    if (BaseLevel < 40 || QUEST_Classe >= 2) end;
    emotion EMOTE_QUEST;
    end;
}
