halicarnazo,56,109|warp|2,0,org016,56,20
halicarnazo,110,54|warp|-1,-1,hali001,42,64
halicarnazo,93,56|warp|0,0,hali001,175,57
halicarnazo,117,47|warp|-1,-1,hali001,176,81
halicarnazo,116,53|warp|-1,-1,hali001,159,20
halicarnazo,109,45|warp|0,0,hali001,86,28
halicarnazo,99,54|warp|-1,-1,hali001,128,21
halicarnazo,95,63|warp|0,0,hali001,35,133
halicarnazo,109,63|warp|0,0,hali001,52,31
halicarnazo,84,63|warp|0,0,hali001,144,67
halicarnazo,73,63|warp|0,0,hali001,111,57
halicarnazo,58,58|warp|-1,-1,hali001,102,92
halicarnazo,47,63|warp|0,0,hali001,69,104
halicarnazo,33,62|warp|0,0,hali001,171,127
halicarnazo,59,27|warp|0,0,hali001,133,131
halicarnazo,43,47|warp|1,0,hali001,101,141
halicarnazo,63,38|warp|1,0,hali001,67,138
halicarnazo,81,47|warp|1,0,hali001,173,161
halicarnazo,42,33|warp|0,0,hali001,133,163
halicarnazo,43,27|warp|0,0,hali001,76,57
halicarnazo,86,34|warp|0,0,hali001,98,174
halicarnazo,119,40|warp|0,0,hali002,23,66
halicarnazo,21,57|warp|0,0,hali003,177,177
