000#000.wlk#
001#001.wlk#
001b#001b.wlk#
001-1#001-1.wlk#
001-2#001-2.wlk#
001-3#001-3.wlk#
002#002.wlk#
002-01#002-01.wlk#
002-02#002-02.wlk#
002-03#002-03.wlk#
002-04#002-04.wlk#
002-05#002-05.wlk#
002-06#002-06.wlk#
002-07#002-07.wlk#
002-08#002-08.wlk#
004#004.wlk#
005#005.wlk#
005-1#005-1.wlk#
005-2#005-2.wlk#
005-3#005-3.wlk#
005-4#005-4.wlk#
007#007.wlk#
007-1#007-1.wlk#
007-2#007-2.wlk#
007-3#007-3.wlk#
007-4#007-4.wlk#
008#008.wlk#
008-1#008-1.wlk#
008-2#008-2.wlk#
008-3#008-3.wlk#
008-4#008-4.wlk#
008-5#008-5.wlk#
008-6#008-6.wlk#
008-7#008-7.wlk#
008-8#008-8.wlk#
009#009.wlk#
009-1#009-1.wlk#
009-2#009-2.wlk#
009-3#009-3.wlk#
009-4#009-4.wlk#
010#010.wlk#
010-1#010-1.wlk#
010-2#010-2.wlk#
010-3#010-3.wlk#
010-4#010-4.wlk#
011#011.wlk#
012#012.wlk#
013#013.wlk#
013-1#013-1.wlk#
013-2#013-2.wlk#
prisao#prisao.wlk#
calabouco#calabouco.wlk#
navio#navio.wlk#
navio007#navio007.wlk#
navio010#navio007.wlk#
navio016#navio007.wlk#
org016#org016.wlk#
org016-1#org016-1.wlk#
org025#org025.wlk#
org025-1#org025-1.wlk#
org026#org026.wlk#
org027#org027.wlk#
org027-1#org027-1.wlk#
aeros#aeros.wlk#
froz#froz.wlk#
froz002#froz002.wlk#
froz001#froz001.wlk#
halicarnazo#halicarnazo.wlk#
hali001#hali001.wlk#
hali002#hali002.wlk#
hali003#hali003.wlk#
coliseu001#coliseu001.wlk#
sarab#sarab.wlk#
botcheck#botcheck.wlk#
boss#boss.wlk#
athirson#athirson.wlk#
thorga#thorga.wlk#
