// @autor  Diogo_RBG - http://diogorbg.blogspot.com
// @desc   Função para o evento de páscoa 2010.


// Script para comer ovo de páscoa.

function|script|comerOvo
{
    setarray @exp,
    1, 2, 2, 3, 7, 11, 14, 19, 23, 29,                                     // lvl:  1 a 10
    35, 44, 51, 61, 71, 82, 94, 105, 116, 131,                             // lvl: 11 a 20
    149, 157, 175, 193, 224, 257, 291, 327, 496, 568,                      // lvl: 21 a 30
    642, 719, 799, 936, 1041, 1149, 1259, 1372, 1894, 2087,                // lvl: 31 a 40
    2284, 2484, 2687, 3022, 3271, 3522, 3774, 4027, 5328, 5878,            // lvl: 41 a 50
    6435, 6996, 7561, 8375, 9030, 9684, 10335, 10980, 13868, 15002,        // lvl: 51 a 60
    16129, 17243, 18338, 19867, 21067, 22235, 23365, 24453, 29613, 45686,  // lvl: 61 a 70
    47822, 49849, 51754, 53523, 57983, 59654, 61138, 62419, 70536, 77302,  // lvl: 71 a 80
    80449, 83163, 85404, 87132, 92276, 93060, 93176, 92582, 91231, 107126, // lvl: 81 a 90
    116500, 218296, 275090, 333715, 463554, 584244, 639485, 1000000, 0;    // lvl: 91 a 99

    // Antes era 10% para todos os lvl!
    //1, 1, 2, 3, 7, 11, 15, 20, 25, 32,                
    //38, 49, 58, 70, 83, 97, 112, 126, 142, 162,       
    //186, 199, 224, 250, 295, 342, 393, 447, 688, 799, 
    //917, 1042, 1174, 1396, 1577, 1767, 1967, 2177, 3054, 3421,    
    //3806, 4210, 4632, 5302, 5841, 6404, 6989, 7597, 10246, 11525, 
    //12869, 14278, 15752, 17818, 19630, 21519, 23487, 25534, 33018, 36591,  
    //40322, 44211, 48259, 53694, 58519, 63527, 68721, 74098, 92540, 147374, 
    //159405, 171892, 184835, 198234, 223011, 238616, 254741, 271387, 320616, 368102, 
    //402247, 437702, 474468, 512544, 576727, 620400, 665546, 712166, 760260, 973872, 
    //1164996, 1364352, 1833930, 2383680, 3565800, 4868700, 5813500, 9999999, 0;      

    set @n, gettime(5);
    if (@n > 18) goto L_ovoVencido;

    if (BaseLevel >= 99) goto L_maximoLvl;
    if (PASCOA_questOvoComeu > 9) goto L_maximoOvos;
    if (getskilllv(399) <= 0) goto L_invalido;

    set PASCOA_questOvoComeu, PASCOA_questOvoComeu + 1;
    setskill 399, 0;
    set BaseExp, BaseExp + @exp[BaseLevel - 1];
    message strcharinfo(0), "* Você recebeu " + @exp[BaseLevel - 1] + " pontos de experiência.";
    message strcharinfo(0), "Heee... ;)";
    return;

L_maximoLvl:
    message strcharinfo(0), "* Você já atingiu o level máximo e não poderá receber experiência.";
    message strcharinfo(0), "Heheh... é msm!!!";
    return;

L_maximoOvos:
    message strcharinfo(0), "* Você já atingiu o limite de 10 ovos e não poderá receber experiência.";
    message strcharinfo(0), "Haa... :(";
    return;

L_invalido:
    message strcharinfo(0), "* Este ovo não era um presente de um amigo. Portanto não poderá fazê-lo evoluir.";
    message strcharinfo(0), "Haa... :(";
    return;

L_ovoVencido:
    message strcharinfo(0), "* Este ovo passou do praso de validade. Você não deveria ter demorado tanto tempo para comê-lo.";
    message strcharinfo(0), "Eca... X(";
    return;
}
