001-3,0,0,0,0|monster|Morcego|1017,30,0ms,0ms,Mob001-3::On1017
001-3,0,0,0,0|monster|Cobra da Caverna|1021,16,0ms,0ms,Mob001-3::On1021


001-3,0,0,0|script|Mob001-3|32767
{
    end;

On1017:
    set @mobID, 1017;
    callfunc "MobPoints";
    end;

On1021:
    set @mobID, 1021;
    callfunc "MobPoints";
    end;
}
