// Quest de espadas Feita por Xtreem

001-3,78,112,0|script|Jim|510
{
    set @TwinBlade, 4044;
    set @FavoDeMel, 3149;
    set @Cerveja, 539;
    set @ErvaGamboge, 682;
    set @ErvaAlizarina, 683;
    set @CapaceteDaInfantaria, 638;

    if (QUEST_TwinBlade == 0 && BaseLevel < 50) goto L_semLevel;
    if (QUEST_TwinBlade == 1) goto L_Retorno;
    if (QUEST_TwinBlade == 2) goto L_Fim;
    goto L_iniciaQuest;

L_semLevel:
    mes "[Jim]";
    mes "\"Estou ocupado neste momento!\"";
    next;
    mes "[Jim]";
    mes "\"Não tenho tempo para você!\"";
    close;

L_iniciaQuest:
    mes "[Jim]";
    mes "\"Como a vida é boa!\"";
    next;
    mes "[Jim]";
    mes "\"O que você quer mesmo?\"";
    next;
    mes "[" + strcharinfo(0) + "]";
    menu
        "Estou a procura de aventuras e de algumas coisinhas a mais.",              L_Aven,
        "Estou procurando um local para treinar e ficar mais forte do que ja sou!", L_Upar;

L_Upar:
    mes "";
    mes "[Jim]";
    mes "\"Não faço a minima ideia de onde você possa treinar.\"";
    close;

L_Aven:
    mes "";
    mes "[Jim]";
    mes "Acho que posso te dar um desafio...";
    mes "\"Tenho aqui uma espada que eu acho que pode te servir. Você quer?\"";
    next;
    mes "[" + strcharinfo(0) + "]";
    menu
        "Nossa! Quero sim mas onde está o desafio?.", L_Precisando,
        "=X Não quero esta sua espada.",              L_NaoQuero;

L_NaoQuero:
    mes "";
    mes "[Jim]";
    mes "=( \"ok!\"";
    close;

L_Precisando:
    mes "";
    mes "[Jim]";
    mes "=) \"O desafio está na lista de itens que eu vou te pedir em troca da espada!\"";
    next;
    mes "[" + strcharinfo(0) + "]";
    menu
        "Quais itens são estes?",                             L_Necessita,
        "Estou sem tempo agora. Depois eu volto me aguarde.", L_Outrora;

L_Outrora:
    mes "";
    mes "[Jim]";
    mes "\"Ok! Ficarei esperando.\"";
    close;

L_Necessita:
    mes "";
    mes "[Jim]";
    mes "\"Os itens são estes:";
    mes " *  30 Favos de mel.";
    mes " *  20 Cervejas.";
    mes " *  60 Erva Gamboge";
    mes " *  60 Erva Alizarina";
    mes " *  01 Chapa de metal grande";
    next;
    mes "[" + strcharinfo(0) + "]";
    menu 
        "Ok! Já volto com estes ítens.", L_Aceitar,
        "Deixa para outro dia!",         L_Tchau;

L_Tchau:
    mes "";
    mes "[Jim]";
    mes "=S \"Ok! Você é quem sabe.\"";
    close;

L_Aceitar:
    mes "";
    mes "[Jim]";
    mes "\"Ok! Ficarei esperando!\"";
    set QUEST_TwinBlade, 1;
    close;
   
L_Retorno:
    mes "[Jim]";
    if (Sex == 1) mes "\"Olá meu amigo, "+strcharinfo(0)+"! Trouxe os itens que eu te pedi?\"";
    if (Sex == 0) mes "\"Olá minha amiga, "+strcharinfo(0)+"! Trouxe os itens que eu te pedi?\"";
    next;
    mes "[" + strcharinfo(0) + "]";
    menu 
        "Aqui estão!",                 L_Pronto,
        "Ainda falta algo.",           L_Fechar,
        "Esqueci o que você precisa!", L_ItensNecessarios;

L_Pronto:
    if (countitem(@FavoDeMel) < 30 || countitem(@Cerveja) < 20 || countitem(@ErvaGamboge) < 60 || countitem(@ErvaAlizarina) < 60 || countitem(@CapaceteDaInfantaria) < 1 ) goto L_naotem;
    getinventorylist;
    if (@inventorylist_count >= 100) goto L_SemEspaco;
    delitem @FavoDeMel, 30;
    delitem @Cerveja, 20;
    delitem @ErvaGamboge, 60;
    delitem @ErvaAlizarina, 60;
    delitem @CapaceteDaInfantaria, 1;
    getitem @TwinBlade, 1;
    set QUEST_TwinBlade, 2;
    mes "";
    mes "[Jim]";
    mes "=) \"Muito bem! Tudo que eu pedi está aqui.\"";
    next;
    mes "[Jim]";
    mes "=D \"Pegue sua Twin Blade.\"";
    close;

L_naotem:
    mes "";
    mes "[Jim]";
    mes "\"Está faltando algumas coisas! Volte quando tiver tudo que eu te pedi.\"";
    close;

L_ItensNecessarios:
    mes "";
    mes "[Jim]";
    mes "\"Deseja que eu diga novamente os nomes dos itens que eu vou precisar?\"";
    next;    
    mes "[" + strcharinfo(0) + "]";
    mes "\"Sim!\"";
    next;    
    mes "[Jim]";
    mes "\"São estes:";
    mes " *  30 Favos de mel.";
    mes " *  20 Cervejas.";
    mes " *  60 Erva Gamboge.";
    mes " *  60 Erva Alizarina.";
    mes " *  01 Chapa de metal grande.\"";    
    next;
    mes "[Jim]";
    mes "=D \"Não esqueça!\"";
    close;

L_SemEspaco:
    mes "";
    mes "[Jim]";
    if (Sex == 1) mes "\"Volte depois meu amigo\"";
    if (Sex == 0) mes "\"Volte depois minha amiga\"";
    mes "=S \"Você está com muitas coisas em sua mochila. A Twin Blade não cabe. Volte quando estiver com algum espaço.\"";
    close;

L_Fim:
    mes "[Jim]";
    mes "=D \"Use esta Twin Blade com sabedoria!.\"";
    close;

L_Fechar:
    close;
}
