// Autor:      Sky
// Descrição:  Quest da Turmalina Rosa ativada


001-1,59,64,0|script|Dubri|153
{
    set @GalaoAgua, 541;
    set @Gamboge, 682;
    set @GosmaVerme,505;
    set @TurmalinaRosa, 3412;
    set @TurmalinaAtivada, 3414;
    if (QUEST_TurmalinaAtivada == 0 && BaseLevel < 70) goto L_semLevel;
    if (QUEST_TurmalinaAtivada == 1) goto L_Retorno;
    if (QUEST_ElmoLord == 3) goto L_FiqueiSabendo;
    if (QUEST_TurmalinaAtivada == 2) goto L_Fim; 
    if (QUEST_ElmoLord == 1) goto L_iniciaQuest;
    mes "[Dubri]";
    mes "\"Olá, como vai?\"";
    close;

L_semLevel:
    mes "[Dubri]";
    mes "\"Olá, como vai?\"";
    close;

L_iniciaQuest:
    mes "[Dubri]";
    mes "(^_^) \"Olá, como vai?\"";
    next;
    mes "[Dubri]";
    mes "\"Bem-vind" + @fm$ + " a Vila dos Pescadores. Meu nome é Dubri, mago alquimista. Prazer em conhecê-l" + @fm$ + ".";
    next;
    mes "[" + strcharinfo(0) + "]";
    mes "\"Olá Dubri! Eu sou " + strcharinfo(0) + ".\"";
    next;
    mes "[" + strcharinfo(0) + "]";
    menu    
        "O forjador Oshiro me mandou te procurar. Ele disse que você pode ativar pedras preciosas.", L_Oshiro,
        "Preciso ir embora, tchau!",                                                                 L_Tchau;

L_Oshiro:
    mes "[Dubri]";
    mes "\"Ativar pedras? Faz muito tempo que eu não faço isso...\"";
    next;
    mes "[" + strcharinfo(0) + "]";
    mes "\"Você poderia tentar?\"";    
    next;
    mes "[Dubri]";
    mes "\"Sim claro, porque não.\"";
    next;
    mes "[" + strcharinfo(0) + "]";
    mes "(^_^) \"Muito obrigad" + @fm$ + "!\"";
    next;
    mes "[Dubri]";
    mes "\"Pois bem, para fazer isso, eu preciso de alguns itens para o encantamento de ativação.\"";
    next;
    mes "[" + strcharinfo(0) + "]";
    menu
        "Quais itens são esses?", L_Qualitens,
        "Ah, esquece.",           L_Tchau;

L_Tchau:
    mes "[Dubri]";
    mes "\"Tudo bem, até mais.\"";
    close;

L_Qualitens:
    next;
    mes "[Dubri]";
    mes "\"Deixe me ver se eu ainda tenho a receita...\"";
    next;
    mes "\"...\"";
    next;
    mes "[Dubri]";
    mes "\"Aqui está!\"";
    next;
    mes "Dubri te mostra uma lista toda rabiscada.";
    mes "-Encantamento de Ativação para Turmalina Rosa-";
    mes "* 100 [" + getitemlink("ErvaGamboge") + "];";
    mes "* 100 [" + getitemlink("GosmaDeVerme") + "];";
    mes "*   1 [" + getitemlink("GarrafaDAgua") + "];";
    mes "*   1 [" + getitemlink("TurmalinaRosa") + "];";
    mes "Misture tudo menos a turmalina até obter uma mistura homogênea. Pingue 6 gotas da mistura sobre a turmalina para desencadear o processo de ativação. "+
    "Espere cerca de 2 minutos até que a turmalina esteja brilhando.";
    next;
    mes "[Dubri]";
    mes "\"Eu posso fazer a receita, se você me trouxer os itens. O que você acha?\"";
    next;
    mes "[" + strcharinfo(0) + "]";
    menu
        "Eu trago os itens.",         L_Trago,
        "Não vou pegar estes itens.", L_Tchau;

L_Trago:
    mes "[Dubri]";
    mes "\"Ótimo! estarei esperando.\"";
    set QUEST_TurmalinaAtivada, 1;
    close;

L_Retorno:
    mes "[Dubri]";
    mes "\"Trouxe os itens para o encantamento?\"";
    next;
    mes "[" + strcharinfo(0) + "]";
    menu 
        "Sim, aqui estão.",               L_entregaItens,
        "Não consegui pegar tudo ainda.", L_NaoConsegui;

L_NaoConsegui:
    mes "[Dubri]";
    mes "=( \"Tudo bem, não faz mal. Vou te mostrar a lista novamente.\"";
    next;
    mes "-Encantamento de Ativação para Turmalina Rosa-";
    mes "* 100 [" + getitemlink("ErvaGamboge") + "];";
    mes "* 100 [" + getitemlink("GosmaDeVerme") + "];";
    mes "* 1 [" + getitemlink("GarrafaDAgua") + "];";
    mes "* 1 [" + getitemlink("TurmalinaRosa") + "];";
    mes "Misture tudo menos a turmalina até obter uma mistura homogênea. Pingue 6 gotas da mistura sobre a turmalina para desencadear o processo de ativação. "+
    "Espere cerca de 2 minutos até que a turmalina esteja brilhando.";
    next;
    mes "[" + strcharinfo(0) + "]";
    mes "\"Vou pegar estes itens!\"";
    close;

L_entregaItens:
    getinventorylist;
    if (@inventorylist_count == 100) goto L_semlugar;

    if (countitem(@Gamboge)       < 100  ||
        countitem(@GosmaVerme)    < 100  ||
        countitem(@GalaoAgua)     < 1    ||
        countitem(@TurmalinaRosa) < 1
    ) goto L_naotem;

    delitem @Gamboge,     100;
    delitem @GosmaVerme,  100;
    delitem @GalaoAgua,     1;
    delitem @TurmalinaRosa, 1;

    getitem @TurmalinaAtivada, 1;

    getexp 5000, 0;
    set QUEST_TurmalinaAtivada, 2;
    mes "";
    mes "[Dubri]";
    mes "\"Prontinho. Aqui está sua Turmalina ativada.\"";
    next;
    mes "[Dubri]";
    mes "=) \"Não sei se Oshiro já te explicou, mas as propriedades defensivas desta pedra são muito fortes. "+
    "Se você combiná-la com um equipamento pode ganhar muitos pontos de defesa.\"";
    close;

L_naotem:
    mes "[Dubri]";
    mes "\"Parece que você não tem os itens pro encantamento. Vou te mostrar a lista novamente.\"";
    next;
    mes "-Encantamento de Ativação de Turmalina Rosa-";
    mes "* 100 [" + getitemlink("ErvaGamboge") + "];";
    mes "* 100 [" + getitemlink("GosmaDeVerme") + "];";
    mes "*   1 [" + getitemlink("GarrafaDAgua") + "];";
    mes "*   1 [" + getitemlink("TurmalinaRosa") + "];";
    mes "";
    mes "Misture tudo menos a turmalina até obter uma mistura homogênea. Pingue 6 gotas da mistura sobre a turmalina para desencadear o processo de ativação. "+
    "Espere cerca de 2 minutos até que a turmalina esteja brilhando.";
    next;
    mes "[" + strcharinfo(0) + "]";
    mes "\"Vou pegar estes itens!\"";
    close;
    
L_semlugar:
    mes "[Dubri]";
    mes "\"Sua mochila está totalmente cheia. Libere ao menos um espacinho para pegar sua turmalina ativada.\"";
    close;

L_Fim:
    mes "[Dubri]";
    mes "\"Até mais!\"";
    close;

L_FiqueiSabendo:
    mes "[Dubri]";
    mes "\"Fiquei sabendo que você criou um elmo usando a turmalina ativada. Ele deverá te defender bastante.\"";
    close;
}
