// Name and Label MUST NOT exceed 23 characters (as marked)
//ID,   Name___________________,        Type,   Price,      Sell,       Weight,     ATK,    DEF,    Range,  Mbonus, Slot,   Gender, Loc,        wLV,    eLV,    View,   {UseScript},                                                            {EquipScript}
585,    PulseiraEscaravelho,            5,      8000,       4000,       200,        0,      0,      0,      5,      0,      2,      32,         0,      1,      1,      {},                                                                     {},
600,    EscudoBritanico,                5,      40000,      3000,       2500,       0,      22,     0,      0,      0,      2,      32,         0,      90,     0,      {},                                                                     {}
601,    EscudoDeAco,                    5,      40000,      3000,       2500,       0,      20,     0,      0,      0,      2,      32,         0,      50,     0,      {},                                                                     {}
602,    EscudoDeMadeira,                5,      10000,      2000,       1500,       0,      14,     0,      0,      0,      2,      32,         0,      40,     0,      {},                                                                     {}
603,    EscudoDeCouro,                  5,      2000,       1000,       1300,       0,      7,      0,      0,      0,      2,      32,         0,      30,     0,      {},                                                                     {}
604,  EscudoDosCavaleiros,              5,      40000,      3000,       2500,       0,      20,     0,      0,      0,      2,      32,         0,      50,     0,      {},                                                                     {}
//608,  EscudoDeLaminas,                5,      0,          0,          0,          0,      0,      0,      0,      0,      0,      32,         0,      0,      0,      {},                                                                     {}
//Esse escudo vai sair porque os blocos de andar (norte e sul) estão errados.
3109,   EscudoTupiguarani,              5,      7000,       1700,       300,        0,      14,     0,      0,      0,      2,      32,         0,      0,      0,      {},                                                                     {}
