// Name and Label MUST NOT exceed 23 characters (as marked)
//ID,   Name___________________,        Type,   Price,      Sell,       Weight,     ATK,    DEF,    Range,  Mbonus, Slot,   Gender, Loc,        wLV,    eLV,    View,   {UseScript},                                                            {EquipScript}
521,    Adaga,                      4,      1000,       500,        100,    15,     0,      1,      0,      0,      2,      2,      1,      1,      1,      {},     {}
522,    FacaAfiada,                 4,      100,        50,         150,    10,     0,      1,      0,      0,      2,      2,      1,      1,      1,      {},     {}
529,    FlechaDeFerro,              10,     5,          2,          1,      50,     0,      0,      0,      0,      2,      32768,  0,      0,      0,      {},     {}
530,    ArcoDeCurtoAlcance,         4,      3000,       1500,       600,    50,     0,      4,      0,      0,      2,      34,     1,      20,     11,     {},     {}
536,    EspadaCurta,                4,      8000,       4000,       2000,   100,    0,      1,      0,      0,      2,      2,      1,      45,     1,      {},     {}
545,    ArcoDaFloresta,             4,      5000,       2500,       1200,   70,     0,      5,      0,      0,      2,      34,     1,      30,     11,     {},     {}
547,    Bardiche,                   4,      2000,       1000,       1300,   120,    0,      1,      0,      0,      2,      2,      1,      55,     1,      {},     {bonus bAgi, 5; bonus bDex, 2;}
548,    Halberd,                    4,      20,         10,         1400,   100,    0,      1,      0,      0,      2,      2,      1,      50,     1,      {},     {}
549,    Machado,                    4,      20,         10,         1500,   100,    0,      1,      0,      0,      2,      2,      1,      50,     1,      {},     {}
550,    MachadoDeFerreiro,          4,      20,         10,         1800,   100,    0,      1,      0,      0,      2,      2,      1,      50,     1,      {},     {}
561,    Sabre,                      4,      10000,      5000,       1,      100,    0,      1,      0,      0,      2,      2,      1,      50,     1,      {},     {}
570,    AdagaDeBoniEClaide,         4,      10000,      6000,       800,    90,     0,      1,      0,      0,      2,      2,      1,      40,     1,      {},     {bonus bAgi, 10;}
571,    Setzer,                     4,      20000,      8000,       900,    110,    0,      1,      0,      0,      2,      2,      1,      50,     3,      {},     {}
572,    Scimitar,                   4,      8000,       4000,       2000,   135,    0,      1,      0,      0,      2,      2,      1,      60,     1,      {},     {bonus bAgi, 3; bonus bDex, 2;}
573,    Falchion,                   4,      8000,       4000,       2000,   135,    0,      1,      0,      0,      2,      2,      1,      60,     1,      {},     {bonus bAgi, 2; bonus bDex, 3;}
574,    LancaReiEscorpiao,          4,      8000,       4000,       1500,   150,    0,      2,      0,      0,      2,      34,     1,      70,     1,      {},     {}
575,    ArcoDoDeserto,              4,      8000,       4000,       1150,   100,    0,      7,      0,      0,      2,      34,     1,      45,     11,     {},     {}
576,    Beheader,                   4,      8000,       4000,       1000,   130,    0,      1,      0,      0,      2,      2,      1,      60,     1,      {},     {bonus bAgi, 5; bonus bDex, 5;}
577,    DardosDeOsso,               4,      8000,       4000,       500,    115,    0,      2,      0,      0,      2,      2,      1,      55,     1,      {},     {bonus bAgi, 10; bonus bDex, 5;}
578,    CortadoraDeAreia,           4,      8000,       4000,       1000,   120,    0,      1,      0,      0,      2,      2,      1,      55,     1,      {},     {bonus bAgi, 5; bonus bDex, 1;}
579,    RockKnife,                  4,      15000,      7500,       3000,   300,    0,      1,      0,      0,      2,      34,     1,      90,     1,      {},     {}
580,    CajadoDaVida,               4,      8000,       4000,       1,      1,      0,      1,      0,      0,      2,      2,      1,      1,      1,      {},     {}
581,    VarinhaMeiaLua,             4,      8000,       4000,       95,     1,      0,      1,      0,      0,      2,      2,      1,      50,     1,      {},     {bonus bMatk1, 100;}
582,    CajadoDeFogo,               4,      8000,       4000,       700,    110,    0,      1,      0,      0,      2,      2,      1,      50,     1,      {},     {bonus bAgi, 7; bonus bDex, 6; bonus bLuk, 5;}
583,    CajadoDeGelo,               4,      8000,       4000,       700,    110,    0,      1,      0,      0,      2,      2,      1,      50,     1,      {},     {bonus bAgi, 8; bonus bDex, 7; bonus bLuk, 6;}
584,    Jackal,                     4,      8000,       4000,       2000,   140,    0,      1,      0,      0,      2,      2,      1,      60,     1,      {},     {bonus bAgi, 3; bonus bDex, 2;}
//587,  RESERVED,                   Espada,                         0,      0,          0,          0,      0,      0,      0,      0,      0,      0,      0,      0,      0,      0,      {},     {} 
//588,  RESERVED,                   Espada Bastarda,                0,      0,          0,          0,      0,      0,      0,      0,      0,      0,      0,      0,      0,      0,      {},     {} 
//589,  RESERVED,                   Espada Ampla,                   0,      0,          0,          0,      0,      0,      0,      0,      0,      0,      0,      0,      0,      0,      {},     {} 
//590,  RESERVED,                   Baselard,                       0,      0,          0,          0,      0,      0,      0,      0,      0,      0,      0,      0,      0,      0,      {},     {} 
//591,  RESERVED,                   Espada Longa,                   0,      0,          0,          0,      0,      0,      0,      0,      0,      0,      0,      0,      0,      0,      {},     {} 
//592,  RESERVED,                   Stiletto,                       0,      0,          0,          0,      0,      0,      0,      0,      0,      0,      0,      0,      0,      0,      {},     {} 
//593,  RESERVED,                   Rapier,                         0,      0,          0,          0,      0,      0,      0,      0,      0,      0,      0,      0,      0,      0,      {},     {} 
//594,  RESERVED,                   Lança,                          0,      0,          0,          0,      0,      0,      0,      0,      0,      0,      0,      0,      0,      0,      {},     {} 
//595,  RESERVED,                   Lança Pesada,                   0,      0,          0,          0,      0,      0,      0,      0,      0,      0,      0,      0,      0,      0,      {},     {} 
//596,  RESERVED,                   Lança de Ferro,                 0,      0,          0,          0,      0,      0,      0,      0,      0,      0,      0,      0,      0,      0,      {},     {} 
//597,  RESERVED,                   Lança Pesada de Ferro,          0,      0,          0,          0,      0,      0,      0,      0,      0,      0,      0,      0,      0,      0,      {},     {} 
//598,  RESERVED,                   Lança Dupla,                    0,      0,          0,          0,      0,      0,      0,      0,      0,      0,      0,      0,      0,      0,      {},     {} 
//599,  RESERVED,                   Espada Incandescente,           0,      0,          0,          0,      0,      0,      0,      0,      0,      0,      0,      0,      0,      0,      {},     {} 
//605,  RESERVED,                   Cutelo de Açougueiro,           0,      0,          0,          0,      0,      0,      0,      0,      0,      0,      0,      0,      0,      0,      {},     {} 
//606,  RESERVED,                   Machadinha,                     0,      0,          0,          0,      0,      0,      0,      0,      0,      0,      0,      0,      0,      0,      {},     {} 
//607,  RESERVED,                   Tridente,                       0,      0,          0,          0,      0,      0,      0,      0,      0,      0,      0,      0,      0,      0,      {},     {} 
//609,  RESERVED,                   Porrete,                        0,      0,          0,          0,      0,      0,      0,      0,      0,      0,      0,      0,      0,      0,      {},     {} 
623,    Foice,                      4,      100,        50,         1200,   75,     0,      1,      0,      0,      2,      2,      1,      35,     3,      {},     {}
758,    CajadoDeMadeira,            4,      50,         25,         100,    5,      0,      1,      0,      0,      2,      2,      1,      1,      1,      {},     {}
762,    FlechaDeTerranite,          10,     3,          1,          1,      25,     0,      0,      0,      0,      2,      32768,  0,      0,      0,      {},     {}
816,    BastaoTrovao,               4,    800000,      50000,     1000,    150,     0,      3,      0,      0,      2,      34,      1,      50,     1,      {},     {bonus bMatk1, 75; bonus bCritical, 5;}
1199,   Flecha,                     10,     3,          1,          1,      25,     0,      0,      0,      0,      2,      32768,  0,      0,      0,      {},     {}
1200,   Arco,                       4,      1000,       500,        20,     20,     0,      5,      0,      0,      2,      34,     1,      1,      11,     {},     {}
1201,   Faca,                       4,      50,         25,         120,    5,      0,      1,      0,      0,      2,      2,      1,      1,      1,      {},     {}
1215,   SabreDeBrinquedo,           4,      50,         25,         1,      1,      0,      1,      0,      0,      2,      2,      1,      1,      1,      {},     {}
3004,   FoiceDaMorte,               4,      5000,       2500,       1600,   130,    0,      1,      0,      0,      2,      2,      1,      60,     3,      {},     {}
3008,   ArcoDosReis,                4,      10000,      5000,       1400,   160,    0,      6,      0,      0,      2,      34,     1,      90,     11,     {},     {}
3029,   RoloDeMacarrao,             4,      50,         25,         300,    30,     0,      1,      0,      0,      2,      2,      1,      1,      1,      {},     {}
3030,   Facao,                      4,      100,        50,         350,    28,     0,      1,      0,      0,      2,      2,      1,      15,     1,      {},     {}
3031,   CuteloCego,                 4,      150,        75,         500,    37,     0,      1,      0,      0,      2,      2,      1,      20,     1,      {},     {}
3032,   CuteloAfiado,               4,      150,        75,         500,    46,     0,      1,      0,      0,      2,      2,      1,      25,     1,      {},     {}
3047,   MachadinhaThomasHawk1,      4,      16000,      8000,       1500,   150,    0,      1,      0,      0,      2,      2,      1,      70,     1,      {},     {bonus bMdef, 5;}
3051,   EspadaAprendiz,             4,      4000,       2000,       150,    20,     0,      1,      0,      0,      2,      2,      1,      5,      1,      {},     {}
3052,   EspadaCavaleiroLider,       4,      7000,       3500,       350,    55,     0,      1,      0,      0,      2,      2,      1,      30,     1,      {},     {}
3053,   EspadaMiguelArcanjo,        4,      200000,     100000,     345,    175,    0,      1,      0,      0,      2,      2,      1,      80,     1,      {},     {}
3054,   EspadaDemoniaca,            4,      200000,     100000,     345,    175,    0,      1,      0,      0,      2,      2,      1,      80,     1,      {},     {}
3055,   EspadaDeKurogane,           4,      250000,     125000,     320,    190,    0,      1,      0,      0,      2,      2,      1,      90,     1,      {},     {bonus bAspdRate, 5;}
3056,   EspadaImortal,              4,      300000,     150000,     360,    225,    0,      1,      0,      0,      2,      2,      1,      90,     1,      {},     {}
3057,   ZambacutouDePedra,          4,      175000,     97500,      2500,   160,    0,      1,      0,      0,      2,      34,     1,      75,     1,      {},     {bonus bVit, 1;}
3058,   ZambacutouVelha,            4,      115000,     57500,      1200,   115,    0,      1,      0,      0,      2,      34,     1,      55,     1,      {},     {}
3091,   BastaoDeMadeira,            4,      6000,       3000,       100,    37,     0,      1,      0,      0,      2,      34,     0,      20,     1,      {},     {}
3111,   Picareta,                   4,      100,        50,         2000,   10,     0,      1,      0,      0,      2,      2,      1,      30,     3,      {},     {}
3112,   PicaretaProfissional,       4,      500,        250,        2000,   15,     0,      1,      0,      0,      2,      2,      1,      60,     3,      {},     {bonus bAgi, 10;}
3191,   RedeCaptura,                4,      1500,       750,        100,    10,     0,      1,      0,      0,      2,      2,      1,      30,     3,      {},     {}
3262,   FacaoSarabiano,             4,      5000,       2500,       900,    115,    0,      1,      0,      0,      2,      2,      1,      55,     1,      {},     {}
3268,   RockKnife_1,                4,      15000,      7500,       3000,   265,    0,      1,      0,      0,      2,      34,     1,      84,     1,      {},     {}
3269,   RockKnife_2,                4,      15000,      7500,       3000,   230,    0,      1,      0,      0,      2,      34,     1,      78,     1,      {},     {}
3270,   RockKnife_3,                4,      15000,      7500,       3000,   195,    0,      1,      0,      0,      2,      34,     1,      72,     1,      {},     {}
3271,   EspadaImortal_1,            4,      300000,     150000,     360,    205,    0,      1,      0,      0,      2,      2,      1,      84,     1,      {},     {}
3272,   EspadaImortal_2,            4,      300000,     150000,     360,    185,    0,      1,      0,      0,      2,      2,      1,      78,     1,      {},     {}
3273,   EspadaImortal_3,            4,      300000,     150000,     360,    165,    0,      1,      0,      0,      2,      2,      1,      72,     1,      {},     {}
3274,   EspadaMiguelArcanjo_1,      4,      200000,     100000,     345,    165,    0,      1,      0,      0,      2,      2,      1,      75,     1,      {},     {}
3275,   EspadaMiguelArcanjo_1,      4,      200000,     100000,     345,    155,    0,      1,      0,      0,      2,      2,      1,      70,     1,      {},     {}
3276,   EspadaMiguelArcanjo_3,      4,      200000,     100000,     345,    145,    0,      1,      0,      0,      2,      2,      1,      65,     1,      {},     {}
3277,   EspadaDemoniaca_1,          4,      200000,     100000,     345,    165,    0,      1,      0,      0,      2,      2,      1,      75,     1,      {},     {}
3278,   EspadaDemoniaca_2,          4,      200000,     100000,     345,    155,    0,      1,      0,      0,      2,      2,      1,      70,     1,      {},     {}
3279,   EspadaDemoniaca_3,          4,      200000,     100000,     345,    145,    0,      1,      0,      0,      2,      2,      1,      65,     1,      {},     {}
3280,   EspadaKurogane_1,           4,      250000,     125000,     320,    168,    0,      1,      0,      0,      2,      2,      1,      85,     1,      {},     {bonus bAspdRate, 5;}
3281,   EspadaKurogane_2,           4,      250000,     125000,     320,    156,    0,      1,      0,      0,      2,      2,      1,      80,     1,      {},     {bonus bAspdRate, 5;}
3282,   EspadaKurogane_3,           4,      250000,     125000,     320,    144,    0,      1,      0,      0,      2,      2,      1,      75,     1,      {},     {bonus bAspdRate, 5;}
3356,   EspadaPetrificada,          4,      10000,      5000,       1800,   140,    0,      1,      0,      0,      2,      2,      1,      60,     3,      {},     {}
3418,   FlechaEnvenenada,           10,     10,         3,          1,      75,     0,      0,      0,      0,      2,      32768,  0,      0,      0,      {},     {}
3419,   FlechaFerroEnvenenada,      10,     15,         5,          1,      100,    0,      0,      0,      0,      2,      32768,  0,      0,      0,      {},     {}
3426,   BastaoBranco,               4,      1000,       500,        50,     73,     0,      1,      0,      0,      2,      2,      1,      40,     1,      {},     {}
3427,   BastaoAmarelo,              4,      1200,       600,        50,     91,     0,      1,      0,      0,      2,      2,      1,      50,     1,      {},     {}
3428,   BastaoVerde,                4,      1400,       700,        50,     109,    0,      1,      0,      0,      2,      2,      1,      60,     1,      {},     {}
3429,   BastaoAzul,                 4,      1600,       800,        50,     127,    0,      1,      0,      0,      2,      2,      1,      70,     1,      {},     {}
3430,   BastaoVermelho,             4,      1800,       900,        50,     145,    0,      1,      0,      0,      2,      2,      1,      80,     1,      {},     {}
3431,   BastaoRoxo,                 4,      2000,       1000,       50,     163,    0,      1,      0,      0,      2,      2,      1,      90,     1,      {},     {}
3432,   BastaoNegro,                4,      2200,       1100,       50,     180,    0,      1,      0,      0,      2,      2,      1,      99,     1,      {},     {}
3435,   Kunai,                      4,      1000,       500,        50,     145,     0,      1,      0,      0,      2,      2,      1,      70,     1,      {},     {bonus bAgi, 1; bonus bDex, 1;}
3438,   MachadinhaThomasHawk,       4,      450000,     4500,       1500,   91,     0,      1,      0,      0,      2,      2,      1,      50,     1,      {},     {}
3447,   EspadaImortal1,             4,      300000,     150000,     360,    235,    0,      1,      0,      0,      2,      2,      1,      90,     1,      {},     {}
3448,   EspadaImortal2,             4,      300000,     150000,     360,    245,    0,      1,      0,      0,      2,      2,      1,      90,     1,      {},     {}
3449,   EspadaImortal3,             4,      300000,     150000,     360,    255,    0,      1,      0,      0,      2,      2,      1,      90,     1,      {},     {}
3450,   EspadaImortal4,             4,      300000,     150000,     360,    265,    0,      1,      0,      0,      2,      2,      1,      90,     1,      {},     {}
3451,   EspadaImortal5,             4,      300000,     150000,     360,    275,    0,      1,      0,      0,      2,      2,      1,      90,     1,      {},     {}
3452,   EspadaImortal6,             4,      300000,     150000,     360,    285,    0,      1,      0,      0,      2,      2,      1,      90,     1,      {},     {}
3453,   EspadaImortal7,             4,      300000,     150000,     360,    295,    0,      1,      0,      0,      2,      2,      1,      90,     1,      {},     {}
3454,   EspadaImortal8,             4,      300000,     150000,     360,    305,    0,      1,      0,      0,      2,      2,      1,      90,     1,      {},     {}
3455,   EspadaImortal9,             4,      300000,     150000,     360,    315,    0,      1,      0,      0,      2,      2,      1,      90,     1,      {},     {}
3456,   EspadaDeKurogane1,          4,      250000,     125000,     320,    190,    0,      1,      0,      0,      2,      2,      1,      90,     1,      {},     {bonus bAspdRate, 10;}
3457,   EspadaDeKurogane2,          4,      250000,     125000,     320,    200,    0,      1,      0,      0,      2,      2,      1,      90,     1,      {},     {bonus bAspdRate, 10;}
3458,   EspadaDeKurogane3,          4,      250000,     125000,     320,    210,    0,      1,      0,      0,      2,      2,      1,      90,     1,      {},     {bonus bAspdRate, 10;}
3459,   EspadaDeKurogane4,          4,      250000,     125000,     320,    220,    0,      1,      0,      0,      2,      2,      1,      90,     1,      {},     {bonus bAspdRate, 10;}
3460,   EspadaDeKurogane5,          4,      250000,     125000,     320,    230,    0,      1,      0,      0,      2,      2,      1,      90,     1,      {},     {bonus bAspdRate, 10;}
3461,   EspadaDeKurogane6,          4,      250000,     125000,     320,    240,    0,      1,      0,      0,      2,      2,      1,      90,     1,      {},     {bonus bAspdRate, 10;}
3462,   EspadaDeKurogane7,          4,      250000,     125000,     320,    250,    0,      1,      0,      0,      2,      2,      1,      90,     1,      {},     {bonus bAspdRate, 10;}
3463,   EspadaDeKurogane8,          4,      250000,     125000,     320,    260,    0,      1,      0,      0,      2,      2,      1,      90,     1,      {},     {bonus bAspdRate, 10;}
3464,   EspadaDeKurogane9,          4,      250000,     125000,     320,    270,    0,      1,      0,      0,      2,      2,      1,      90,     1,      {},     {bonus bAspdRate, 10;}
3465,   EspadaMiguelArcanjo1,       4,      200000,     100000,     345,    185,    0,      1,      0,      0,      2,      2,      1,      80,     1,      {},     {}
3466,   EspadaMiguelArcanjo2,       4,      200000,     100000,     345,    195,    0,      1,      0,      0,      2,      2,      1,      80,     1,      {},     {}
3467,   EspadaMiguelArcanjo3,       4,      200000,     100000,     345,    205,    0,      1,      0,      0,      2,      2,      1,      80,     1,      {},     {}
3468,   EspadaMiguelArcanjo4,       4,      200000,     100000,     345,    215,    0,      1,      0,      0,      2,      2,      1,      80,     1,      {},     {}
3469,   EspadaMiguelArcanjo5,       4,      200000,     100000,     345,    225,    0,      1,      0,      0,      2,      2,      1,      80,     1,      {},     {}
3470,   EspadaMiguelArcanjo6,       4,      200000,     100000,     345,    235,    0,      1,      0,      0,      2,      2,      1,      80,     1,      {},     {}
3471,   EspadaMiguelArcanjo7,       4,      200000,     100000,     345,    245,    0,      1,      0,      0,      2,      2,      1,      80,     1,      {},     {}
3472,   EspadaMiguelArcanjo8,       4,      200000,     100000,     345,    255,    0,      1,      0,      0,      2,      2,      1,      80,     1,      {},     {}
3473,   EspadaMiguelArcanjo9,       4,      200000,     100000,     345,    265,    0,      1,      0,      0,      2,      2,      1,      80,     1,      {},     {}
3474,   Faca1,                      4,      50,         25,         120,    15,     0,      1,      0,      0,      2,      2,      1,      1,      1,      {},     {}
3475,   Faca2,                      4,      50,         25,         120,    25,     0,      1,      0,      0,      2,      2,      1,      1,      1,      {},     {}
3476,   Faca3,                      4,      50,         25,         120,    35,     0,      1,      0,      0,      2,      2,      1,      1,      1,      {},     {}
3477,   Faca4,                      4,      50,         25,         120,    45,     0,      1,      0,      0,      2,      2,      1,      1,      1,      {},     {}
3478,   Faca5,                      4,      50,         25,         120,    55,     0,      1,      0,      0,      2,      2,      1,      1,      1,      {},     {}
3479,   Faca6,                      4,      50,         25,         120,    65,     0,      1,      0,      0,      2,      2,      1,      1,      1,      {},     {}
3480,   Faca7,                      4,      50,         25,         120,    75,     0,      1,      0,      0,      2,      2,      1,      1,      1,      {},     {}
3481,   Faca8,                      4,      50,         25,         120,    85,     0,      1,      0,      0,      2,      2,      1,      1,      1,      {},     {}
3482,   Faca9,                      4,      50,         25,         120,    95,     0,      1,      0,      0,      2,      2,      1,      1,      1,      {},     {}
3483,   FacaAfiada1,                4,      100,        50,         150,    20,     0,      1,      0,      0,      2,      2,      1,      1,      1,      {},     {}
3484,   FacaAfiada2,                4,      100,        50,         150,    30,     0,      1,      0,      0,      2,      2,      1,      1,      1,      {},     {}
3485,   FacaAfiada3,                4,      100,        50,         150,    40,     0,      1,      0,      0,      2,      2,      1,      1,      1,      {},     {}
3486,   FacaAfiada4,                4,      100,        50,         150,    50,     0,      1,      0,      0,      2,      2,      1,      1,      1,      {},     {}
3487,   FacaAfiada5,                4,      100,        50,         150,    60,     0,      1,      0,      0,      2,      2,      1,      1,      1,      {},     {}
3488,   FacaAfiada6,                4,      100,        50,         150,    70,     0,      1,      0,      0,      2,      2,      1,      1,      1,      {},     {}
3489,   FacaAfiada7,                4,      100,        50,         150,    80,     0,      1,      0,      0,      2,      2,      1,      1,      1,      {},     {}
3490,   FacaAfiada8,                4,      100,        50,         150,    90,     0,      1,      0,      0,      2,      2,      1,      1,      1,      {},     {}
3491,   FacaAfiada9,                4,      100,        50,         150,    100,    0,      1,      0,      0,      2,      2,      1,      1,      1,      {},     {}
3492,   Adaga1,                     4,      1000,       500,        100,    25,     0,      1,      0,      0,      2,      2,      1,      1,      1,      {},     {}
3493,   Adaga2,                     4,      1000,       500,        100,    35,     0,      1,      0,      0,      2,      2,      1,      1,      1,      {},     {}
3494,   Adaga3,                     4,      1000,       500,        100,    45,     0,      1,      0,      0,      2,      2,      1,      1,      1,      {},     {}
3495,   Adaga4,                     4,      1000,       500,        100,    55,     0,      1,      0,      0,      2,      2,      1,      1,      1,      {},     {}
3496,   Adaga5,                     4,      1000,       500,        100,    65,     0,      1,      0,      0,      2,      2,      1,      1,      1,      {},     {}
3497,   Adaga6,                     4,      1000,       500,        100,    75,     0,      1,      0,      0,      2,      2,      1,      1,      1,      {},     {}
3498,   Adaga7,                     4,      1000,       500,        100,    85,     0,      1,      0,      0,      2,      2,      1,      1,      1,      {},     {}
3499,   Adaga8,                     4,      1000,       500,        100,    95,     0,      1,      0,      0,      2,      2,      1,      1,      1,      {},     {}
3500,   Adaga9,                     4,      1000,       500,        100,    105,    0,      1,      0,      0,      2,      2,      1,      1,      1,      {},     {}
3501,   RoloDeMacarrao1,            4,      50,         25,         300,    40,     0,      1,      0,      0,      2,      2,      1,      1,      1,      {},     {}
3502,   RoloDeMacarrao2,            4,      50,         25,         300,    50,     0,      1,      0,      0,      2,      2,      1,      1,      1,      {},     {}
3503,   RoloDeMacarrao3,            4,      50,         25,         300,    60,     0,      1,      0,      0,      2,      2,      1,      1,      1,      {},     {}
3504,   RoloDeMacarrao4,            4,      50,         25,         300,    70,     0,      1,      0,      0,      2,      2,      1,      1,      1,      {},     {}
3505,   RoloDeMacarrao5,            4,      50,         25,         300,    80,     0,      1,      0,      0,      2,      2,      1,      1,      1,      {},     {}
3506,   RoloDeMacarrao6,            4,      50,         25,         300,    90,     0,      1,      0,      0,      2,      2,      1,      1,      1,      {},     {}
3507,   RoloDeMacarrao7,            4,      50,         25,         300,    100,    0,      1,      0,      0,      2,      2,      1,      1,      1,      {},     {}
3508,   RoloDeMacarrao8,            4,      50,         25,         300,    110,    0,      1,      0,      0,      2,      2,      1,      1,      1,      {},     {}
3509,   RoloDeMacarrao9,            4,      50,         25,         300,    120,    0,      1,      0,      0,      2,      2,      1,      1,      1,      {},     {}
3510,   Facao1,                     4,      100,        50,         400,    60,     0,      1,      0,      0,      2,      2,      1,      20,     1,      {},     {}
3511,   Facao2,                     4,      100,        50,         400,    70,     0,      1,      0,      0,      2,      2,      1,      20,     1,      {},     {}
3512,   Facao3,                     4,      100,        50,         400,    80,     0,      1,      0,      0,      2,      2,      1,      20,     1,      {},     {}
3513,   Facao4,                     4,      100,        50,         400,    90,     0,      1,      0,      0,      2,      2,      1,      20,     1,      {},     {}
3514,   Facao5,                     4,      100,        50,         400,    100,    0,      1,      0,      0,      2,      2,      1,      20,     1,      {},     {}
3515,   Facao6,                     4,      100,        50,         400,    110,    0,      1,      0,      0,      2,      2,      1,      20,     1,      {},     {}
3516,   Facao7,                     4,      100,        50,         400,    120,    0,      1,      0,      0,      2,      2,      1,      20,     1,      {},     {}
3517,   Facao8,                     4,      100,        50,         400,    130,    0,      1,      0,      0,      2,      2,      1,      20,     1,      {},     {}
3518,   Facao9,                     4,      100,        50,         400,    140,    0,      1,      0,      0,      2,      2,      1,      20,     1,      {},     {}
3519,   CuteloAfiado1,              4,      150,        75,         500,    75,     0,      1,      0,      0,      2,      2,      1,      25,     1,      {},     {}
3520,   CuteloAfiado2,              4,      150,        75,         500,    85,     0,      1,      0,      0,      2,      2,      1,      25,     1,      {},     {}
3521,   CuteloAfiado3,              4,      150,        75,         500,    95,     0,      1,      0,      0,      2,      2,      1,      25,     1,      {},     {}
3522,   CuteloAfiado4,              4,      150,        75,         500,    105,    0,      1,      0,      0,      2,      2,      1,      25,     1,      {},     {}
3523,   CuteloAfiado5,              4,      150,        75,         500,    115,    0,      1,      0,      0,      2,      2,      1,      25,     1,      {},     {}
3524,   CuteloAfiado6,              4,      150,        75,         500,    125,    0,      1,      0,      0,      2,      2,      1,      25,     1,      {},     {}
3525,   CuteloAfiado7,              4,      150,        75,         500,    135,    0,      1,      0,      0,      2,      2,      1,      25,     1,      {},     {}
3526,   CuteloAfiado8,              4,      150,        75,         500,    145,    0,      1,      0,      0,      2,      2,      1,      25,     1,      {},     {}
3527,   CuteloAfiado9,              4,      150,        75,         500,    155,    0,      1,      0,      0,      2,      2,      1,      25,     1,      {},     {}
3528,   EspadaAprendiz1,            4,      4000,       2000,       150,    50,     0,      1,      0,      0,      2,      2,      1,      10,     1,      {},     {}
3529,   EspadaAprendiz2,            4,      4000,       2000,       150,    60,     0,      1,      0,      0,      2,      2,      1,      10,     1,      {},     {}
3530,   EspadaAprendiz3,            4,      4000,       2000,       150,    70,     0,      1,      0,      0,      2,      2,      1,      10,     1,      {},     {}
3531,   EspadaAprendiz4,            4,      4000,       2000,       150,    80,     0,      1,      0,      0,      2,      2,      1,      10,     1,      {},     {}
3532,   EspadaAprendiz5,            4,      4000,       2000,       150,    90,     0,      1,      0,      0,      2,      2,      1,      10,     1,      {},     {}
3533,   EspadaAprendiz6,            4,      4000,       2000,       150,    100,    0,      1,      0,      0,      2,      2,      1,      10,     1,      {},     {}
3534,   EspadaAprendiz7,            4,      4000,       2000,       150,    110,    0,      1,      0,      0,      2,      2,      1,      10,     1,      {},     {}
3535,   EspadaAprendiz8,            4,      4000,       2000,       150,    120,    0,      1,      0,      0,      2,      2,      1,      10,     1,      {},     {}
3536,   EspadaAprendiz9,            4,      4000,       2000,       150,    130,    0,      1,      0,      0,      2,      2,      1,      10,     1,      {},     {}
3537,   EspadaCavaleiroLider1,      4,      7000,       3500,       350,    75,     0,      1,      0,      0,      2,      2,      1,      25,     1,      {},     {}
3538,   EspadaCavaleiroLider2,      4,      7000,       3500,       350,    85,     0,      1,      0,      0,      2,      2,      1,      25,     1,      {},     {}
3539,   EspadaCavaleiroLider3,      4,      7000,       3500,       350,    95,     0,      1,      0,      0,      2,      2,      1,      25,     1,      {},     {}
3540,   EspadaCavaleiroLider4,      4,      7000,       3500,       350,    105,    0,      1,      0,      0,      2,      2,      1,      25,     1,      {},     {}
3541,   EspadaCavaleiroLider5,      4,      7000,       3500,       350,    115,    0,      1,      0,      0,      2,      2,      1,      25,     1,      {},     {}
3542,   EspadaCavaleiroLider6,      4,      7000,       3500,       350,    125,    0,      1,      0,      0,      2,      2,      1,      25,     1,      {},     {}
3543,   EspadaCavaleiroLider7,      4,      7000,       3500,       350,    135,    0,      1,      0,      0,      2,      2,      1,      25,     1,      {},     {}
3544,   EspadaCavaleiroLider8,      4,      7000,       3500,       350,    145,    0,      1,      0,      0,      2,      2,      1,      25,     1,      {},     {}
3545,   EspadaCavaleiroLider9,      4,      7000,       3500,       350,    155,    0,      1,      0,      0,      2,      2,      1,      25,     1,      {},     {}
3546,   Foice1,                     4,      100,        50,         1200,   85,     0,      1,      0,      0,      2,      2,      1,      35,     3,      {},     {}
3547,   Foice2,                     4,      100,        50,         1200,   95,     0,      1,      0,      0,      2,      2,      1,      35,     3,      {},     {}
3548,   Foice3,                     4,      100,        50,         1200,   105,    0,      1,      0,      0,      2,      2,      1,      35,     3,      {},     {}
3549,   Foice4,                     4,      100,        50,         1200,   115,    0,      1,      0,      0,      2,      2,      1,      35,     3,      {},     {}
3550,   Foice5,                     4,      100,        50,         1200,   125,    0,      1,      0,      0,      2,      2,      1,      35,     3,      {},     {}
3551,   Foice6,                     4,      100,        50,         1200,   135,    0,      1,      0,      0,      2,      2,      1,      35,     3,      {},     {}
3552,   Foice7,                     4,      100,        50,         1200,   145,    0,      1,      0,      0,      2,      2,      1,      35,     3,      {},     {}
3553,   Foice8,                     4,      100,        50,         1200,   155,    0,      1,      0,      0,      2,      2,      1,      35,     3,      {},     {}
3554,   Foice9,                     4,      100,        50,         1200,   165,    0,      1,      0,      0,      2,      2,      1,      35,     3,      {},     {}
3555,   AdagaDeBoniEClaide1,        4,      10000,      6000,       800,    100,    0,      1,      0,      0,      2,      2,      1,      40,     1,      {},     {bonus bAgi, 10;}
3556,   AdagaDeBoniEClaide2,        4,      10000,      6000,       800,    110,    0,      1,      0,      0,      2,      2,      1,      40,     1,      {},     {bonus bAgi, 10;}
3557,   AdagaDeBoniEClaide3,        4,      10000,      6000,       800,    120,    0,      1,      0,      0,      2,      2,      1,      40,     1,      {},     {bonus bAgi, 10;}
3558,   AdagaDeBoniEClaide4,        4,      10000,      6000,       800,    130,    0,      1,      0,      0,      2,      2,      1,      40,     1,      {},     {bonus bAgi, 10;}
3559,   AdagaDeBoniEClaide5,        4,      10000,      6000,       800,    140,    0,      1,      0,      0,      2,      2,      1,      40,     1,      {},     {bonus bAgi, 10;}
3560,   AdagaDeBoniEClaide6,        4,      10000,      6000,       800,    150,    0,      1,      0,      0,      2,      2,      1,      40,     1,      {},     {bonus bAgi, 10;}
3561,   AdagaDeBoniEClaide7,        4,      10000,      6000,       800,    160,    0,      1,      0,      0,      2,      2,      1,      40,     1,      {},     {bonus bAgi, 10;}
3562,   AdagaDeBoniEClaide8,        4,      10000,      6000,       800,    170,    0,      1,      0,      0,      2,      2,      1,      40,     1,      {},     {bonus bAgi, 10;}
3563,   AdagaDeBoniEClaide9,        4,      10000,      6000,       800,    180,    0,      1,      0,      0,      2,      2,      1,      40,     1,      {},     {bonus bAgi, 10;}
3564,   EspadaCurta1,               4,      8000,       4000,       2000,   110,    0,      1,      0,      0,      2,      2,      1,      45,     1,      {},     {}
3565,   EspadaCurta2,               4,      8000,       4000,       2000,   120,    0,      1,      0,      0,      2,      2,      1,      45,     1,      {},     {}
3566,   EspadaCurta3,               4,      8000,       4000,       2000,   130,    0,      1,      0,      0,      2,      2,      1,      45,     1,      {},     {}
3567,   EspadaCurta4,               4,      8000,       4000,       2000,   140,    0,      1,      0,      0,      2,      2,      1,      45,     1,      {},     {}
3568,   EspadaCurta5,               4,      8000,       4000,       2000,   150,    0,      1,      0,      0,      2,      2,      1,      45,     1,      {},     {}
3569,   EspadaCurta6,               4,      8000,       4000,       2000,   160,    0,      1,      0,      0,      2,      2,      1,      45,     1,      {},     {}
3570,   EspadaCurta7,               4,      8000,       4000,       2000,   170,    0,      1,      0,      0,      2,      2,      1,      45,     1,      {},     {}
3571,   EspadaCurta8,               4,      8000,       4000,       2000,   180,    0,      1,      0,      0,      2,      2,      1,      45,     1,      {},     {}
3572,   EspadaCurta9,               4,      8000,       4000,       2000,   190,    0,      1,      0,      0,      2,      2,      1,      45,     1,      {},     {}
3573,   Setzer1,                    4,      20000,      8000,       900,    120,    0,      1,      0,      0,      2,      2,      1,      50,     3,      {},     {}
3574,   Setzer2,                    4,      20000,      8000,       900,    130,    0,      1,      0,      0,      2,      2,      1,      50,     3,      {},     {}
3575,   Setzer3,                    4,      20000,      8000,       900,    140,    0,      1,      0,      0,      2,      2,      1,      50,     3,      {},     {}
3576,   Setzer4,                    4,      20000,      8000,       900,    150,    0,      1,      0,      0,      2,      2,      1,      50,     3,      {},     {}
3577,   Setzer5,                    4,      20000,      8000,       900,    160,    0,      1,      0,      0,      2,      2,      1,      50,     3,      {},     {}
3578,   Setzer6,                    4,      20000,      8000,       900,    170,    0,      1,      0,      0,      2,      2,      1,      50,     3,      {},     {}
3579,   Setzer7,                    4,      20000,      8000,       900,    180,    0,      1,      0,      0,      2,      2,      1,      50,     3,      {},     {}
3580,   Setzer8,                    4,      20000,      8000,       900,    190,    0,      1,      0,      0,      2,      2,      1,      50,     3,      {},     {}
3581,   Setzer9,                    4,      20000,      8000,       900,    200,    0,      1,      0,      0,      2,      2,      1,      50,     3,      {},     {}
3582,   DardosDeOsso1,              4,      8000,       4000,       500,    140,    0,      2,      0,      0,      2,      2,      1,      55,     1,      {},     {bonus bAgi, 10; bonus bDex, 5;}
3583,   DardosDeOsso2,              4,      8000,       4000,       500,    150,    0,      2,      0,      0,      2,      2,      1,      55,     1,      {},     {bonus bAgi, 10; bonus bDex, 5;}
3584,   DardosDeOsso3,              4,      8000,       4000,       500,    160,    0,      2,      0,      0,      2,      2,      1,      55,     1,      {},     {bonus bAgi, 10; bonus bDex, 5;}
3585,   DardosDeOsso4,              4,      8000,       4000,       500,    170,    0,      2,      0,      0,      2,      2,      1,      55,     1,      {},     {bonus bAgi, 10; bonus bDex, 5;}
3586,   DardosDeOsso5,              4,      8000,       4000,       500,    180,    0,      2,      0,      0,      2,      2,      1,      55,     1,      {},     {bonus bAgi, 10; bonus bDex, 5;}
3587,   DardosDeOsso6,              4,      8000,       4000,       500,    190,    0,      2,      0,      0,      2,      2,      1,      55,     1,      {},     {bonus bAgi, 10; bonus bDex, 5;}
3588,   DardosDeOsso7,              4,      8000,       4000,       500,    200,    0,      2,      0,      0,      2,      2,      1,      55,     1,      {},     {bonus bAgi, 10; bonus bDex, 5;}
3589,   DardosDeOsso8,              4,      8000,       4000,       500,    210,    0,      2,      0,      0,      2,      2,      1,      55,     1,      {},     {bonus bAgi, 10; bonus bDex, 5;}
3590,   DardosDeOsso9,              4,      8000,       4000,       500,    220,    0,      2,      0,      0,      2,      2,      1,      55,     1,      {},     {bonus bAgi, 10; bonus bDex, 5;}
3591,   CortadoraDeAreia1,          4,      8000,       4000,       1000,   130,    0,      1,      0,      0,      2,      2,      1,      55,     1,      {},     {bonus bAgi, 5; bonus bDex, 1;}
3592,   CortadoraDeAreia2,          4,      8000,       4000,       1000,   140,    0,      1,      0,      0,      2,      2,      1,      55,     1,      {},     {bonus bAgi, 5; bonus bDex, 1;}
3593,   CortadoraDeAreia3,          4,      8000,       4000,       1000,   150,    0,      1,      0,      0,      2,      2,      1,      55,     1,      {},     {bonus bAgi, 5; bonus bDex, 1;}
3594,   CortadoraDeAreia4,          4,      8000,       4000,       1000,   160,    0,      1,      0,      0,      2,      2,      1,      55,     1,      {},     {bonus bAgi, 5; bonus bDex, 1;}
3595,   CortadoraDeAreia5,          4,      8000,       4000,       1000,   170,    0,      1,      0,      0,      2,      2,      1,      55,     1,      {},     {bonus bAgi, 5; bonus bDex, 1;}
3596,   CortadoraDeAreia6,          4,      8000,       4000,       1000,   180,    0,      1,      0,      0,      2,      2,      1,      55,     1,      {},     {bonus bAgi, 5; bonus bDex, 1;}
3597,   CortadoraDeAreia7,          4,      8000,       4000,       1000,   190,    0,      1,      0,      0,      2,      2,      1,      55,     1,      {},     {bonus bAgi, 5; bonus bDex, 1;}
3598,   CortadoraDeAreia8,          4,      8000,       4000,       1000,   200,    0,      1,      0,      0,      2,      2,      1,      55,     1,      {},     {bonus bAgi, 5; bonus bDex, 1;}
3599,   CortadoraDeAreia9,          4,      8000,       4000,       1000,   210,    0,      1,      0,      0,      2,      2,      1,      55,     1,      {},     {bonus bAgi, 5; bonus bDex, 1;}
3600,   Scimitar1,                  4,      8000,       4000,       2000,   145,    0,      1,      0,      0,      2,      2,      1,      60,     1,      {},     {bonus bAgi, 3; bonus bDex, 2;}
3601,   Scimitar2,                  4,      8000,       4000,       2000,   155,    0,      1,      0,      0,      2,      2,      1,      60,     1,      {},     {bonus bAgi, 3; bonus bDex, 2;}
3602,   Scimitar3,                  4,      8000,       4000,       2000,   165,    0,      1,      0,      0,      2,      2,      1,      60,     1,      {},     {bonus bAgi, 3; bonus bDex, 2;}
3603,   Scimitar4,                  4,      8000,       4000,       2000,   175,    0,      1,      0,      0,      2,      2,      1,      60,     1,      {},     {bonus bAgi, 3; bonus bDex, 2;}
3604,   Scimitar5,                  4,      8000,       4000,       2000,   185,    0,      1,      0,      0,      2,      2,      1,      60,     1,      {},     {bonus bAgi, 3; bonus bDex, 2;}
3605,   Scimitar6,                  4,      8000,       4000,       2000,   195,    0,      1,      0,      0,      2,      2,      1,      60,     1,      {},     {bonus bAgi, 3; bonus bDex, 2;}
3606,   Scimitar7,                  4,      8000,       4000,       2000,   205,    0,      1,      0,      0,      2,      2,      1,      60,     1,      {},     {bonus bAgi, 3; bonus bDex, 2;}
3607,   Scimitar8,                  4,      8000,       4000,       2000,   215,    0,      1,      0,      0,      2,      2,      1,      60,     1,      {},     {bonus bAgi, 3; bonus bDex, 2;}
3608,   Scimitar9,                  4,      8000,       4000,       2000,   225,    0,      1,      0,      0,      2,      2,      1,      60,     1,      {},     {bonus bAgi, 3; bonus bDex, 2;}
3609,   Falchion1,                  4,      8000,       4000,       2000,   145,    0,      1,      0,      0,      2,      2,      1,      60,     1,      {},     {bonus bAgi, 2; bonus bDex, 3;}
3610,   Falchion2,                  4,      8000,       4000,       2000,   155,    0,      1,      0,      0,      2,      2,      1,      60,     1,      {},     {bonus bAgi, 2; bonus bDex, 3;}
3611,   Falchion3,                  4,      8000,       4000,       2000,   165,    0,      1,      0,      0,      2,      2,      1,      60,     1,      {},     {bonus bAgi, 2; bonus bDex, 3;}
3612,   Falchion4,                  4,      8000,       4000,       2000,   175,    0,      1,      0,      0,      2,      2,      1,      60,     1,      {},     {bonus bAgi, 2; bonus bDex, 3;}
3613,   Falchion5,                  4,      8000,       4000,       2000,   185,    0,      1,      0,      0,      2,      2,      1,      60,     1,      {},     {bonus bAgi, 2; bonus bDex, 3;}
3614,   Falchion6,                  4,      8000,       4000,       2000,   195,    0,      1,      0,      0,      2,      2,      1,      60,     1,      {},     {bonus bAgi, 2; bonus bDex, 3;}
3615,   Falchion7,                  4,      8000,       4000,       2000,   205,    0,      1,      0,      0,      2,      2,      1,      60,     1,      {},     {bonus bAgi, 2; bonus bDex, 3;}
3616,   Falchion8,                  4,      8000,       4000,       2000,   215,    0,      1,      0,      0,      2,      2,      1,      60,     1,      {},     {bonus bAgi, 2; bonus bDex, 3;}
3617,   Falchion9,                  4,      8000,       4000,       2000,   225,    0,      1,      0,      0,      2,      2,      1,      60,     1,      {},     {bonus bAgi, 2; bonus bDex, 3;}
3618,   Jackal1,                    4,      8000,       4000,       2000,   150,    0,      1,      0,      0,      2,      2,      1,      60,     1,      {},     {bonus bAgi, 3; bonus bDex, 2;}
3619,   Jackal2,                    4,      8000,       4000,       2000,   160,    0,      1,      0,      0,      2,      2,      1,      60,     1,      {},     {bonus bAgi, 3; bonus bDex, 2;}
3620,   Jackal3,                    4,      8000,       4000,       2000,   170,    0,      1,      0,      0,      2,      2,      1,      60,     1,      {},     {bonus bAgi, 3; bonus bDex, 2;}
3621,   Jackal4,                    4,      8000,       4000,       2000,   180,    0,      1,      0,      0,      2,      2,      1,      60,     1,      {},     {bonus bAgi, 3; bonus bDex, 2;}
3622,   Jackal5,                    4,      8000,       4000,       2000,   190,    0,      1,      0,      0,      2,      2,      1,      60,     1,      {},     {bonus bAgi, 3; bonus bDex, 2;}
3623,   Jackal6,                    4,      8000,       4000,       2000,   200,    0,      1,      0,      0,      2,      2,      1,      60,     1,      {},     {bonus bAgi, 3; bonus bDex, 2;}
3624,   Jackal7,                    4,      8000,       4000,       2000,   210,    0,      1,      0,      0,      2,      2,      1,      60,     1,      {},     {bonus bAgi, 3; bonus bDex, 2;}
3625,   Jackal8,                    4,      8000,       4000,       2000,   220,    0,      1,      0,      0,      2,      2,      1,      60,     1,      {},     {bonus bAgi, 3; bonus bDex, 2;}
3626,   Jackal9,                    4,      8000,       4000,       2000,   230,    0,      1,      0,      0,      2,      2,      1,      60,     1,      {},     {bonus bAgi, 3; bonus bDex, 2;}
3627,   Beheader1,                  4,      8000,       4000,       1000,   140,    0,      1,      0,      0,      2,      2,      1,      60,     1,      {},     {bonus bAgi, 5; bonus bDex, 5;}
3628,   Beheader2,                  4,      8000,       4000,       1000,   150,    0,      1,      0,      0,      2,      2,      1,      60,     1,      {},     {bonus bAgi, 5; bonus bDex, 5;}
3629,   Beheader3,                  4,      8000,       4000,       1000,   160,    0,      1,      0,      0,      2,      2,      1,      60,     1,      {},     {bonus bAgi, 5; bonus bDex, 5;}
3630,   Beheader4,                  4,      8000,       4000,       1000,   170,    0,      1,      0,      0,      2,      2,      1,      60,     1,      {},     {bonus bAgi, 5; bonus bDex, 5;}
3631,   Beheader5,                  4,      8000,       4000,       1000,   180,    0,      1,      0,      0,      2,      2,      1,      60,     1,      {},     {bonus bAgi, 5; bonus bDex, 5;}
3632,   Beheader6,                  4,      8000,       4000,       1000,   190,    0,      1,      0,      0,      2,      2,      1,      60,     1,      {},     {bonus bAgi, 5; bonus bDex, 5;}
3633,   Beheader7,                  4,      8000,       4000,       1000,   200,    0,      1,      0,      0,      2,      2,      1,      60,     1,      {},     {bonus bAgi, 5; bonus bDex, 5;}
3634,   Beheader8,                  4,      8000,       4000,       1000,   210,    0,      1,      0,      0,      2,      2,      1,      60,     1,      {},     {bonus bAgi, 5; bonus bDex, 5;}
3635,   Beheader9,                  4,      8000,       4000,       1000,   220,    0,      1,      0,      0,      2,      2,      1,      60,     1,      {},     {bonus bAgi, 5; bonus bDex, 5;}
3636,   CajadoDeFogo1,              4,      8000,       4000,       700,    120,    0,      1,      0,      0,      2,      2,      1,      50,     1,      {},     {bonus bAgi, 7; bonus bDex, 6; bonus bLuk, 5;}
3637,   CajadoDeFogo2,              4,      8000,       4000,       700,    130,    0,      1,      0,      0,      2,      2,      1,      50,     1,      {},     {bonus bAgi, 7; bonus bDex, 6; bonus bLuk, 5;}
3638,   CajadoDeFogo3,              4,      8000,       4000,       700,    140,    0,      1,      0,      0,      2,      2,      1,      50,     1,      {},     {bonus bAgi, 7; bonus bDex, 6; bonus bLuk, 5;}
3639,   CajadoDeFogo4,              4,      8000,       4000,       700,    150,    0,      1,      0,      0,      2,      2,      1,      50,     1,      {},     {bonus bAgi, 7; bonus bDex, 6; bonus bLuk, 5;}
3640,   CajadoDeFogo5,              4,      8000,       4000,       700,    160,    0,      1,      0,      0,      2,      2,      1,      50,     1,      {},     {bonus bAgi, 7; bonus bDex, 6; bonus bLuk, 5;}
3641,   CajadoDeFogo6,              4,      8000,       4000,       700,    170,    0,      1,      0,      0,      2,      2,      1,      50,     1,      {},     {bonus bAgi, 7; bonus bDex, 6; bonus bLuk, 5;}
3642,   CajadoDeFogo7,              4,      8000,       4000,       700,    180,    0,      1,      0,      0,      2,      2,      1,      50,     1,      {},     {bonus bAgi, 7; bonus bDex, 6; bonus bLuk, 5;}
3643,   CajadoDeFogo8,              4,      8000,       4000,       700,    190,    0,      1,      0,      0,      2,      2,      1,      50,     1,      {},     {bonus bAgi, 7; bonus bDex, 6; bonus bLuk, 5;}
3644,   CajadoDeFogo9,              4,      8000,       4000,       700,    200,    0,      1,      0,      0,      2,      2,      1,      50,     1,      {},     {bonus bAgi, 7; bonus bDex, 6; bonus bLuk, 5;}
3654,   CajadoDeGelo1,              4,      8000,       4000,       700,    120,    0,      1,      0,      0,      2,      2,      1,      50,     1,      {},     {bonus bAgi, 8; bonus bDex, 7; bonus bLuk, 6;}
3655,   CajadoDeGelo2,              4,      8000,       4000,       700,    130,    0,      1,      0,      0,      2,      2,      1,      50,     1,      {},     {bonus bAgi, 8; bonus bDex, 7; bonus bLuk, 6;}
3656,   CajadoDeGelo3,              4,      8000,       4000,       700,    140,    0,      1,      0,      0,      2,      2,      1,      50,     1,      {},     {bonus bAgi, 8; bonus bDex, 7; bonus bLuk, 6;}
3657,   CajadoDeGelo4,              4,      8000,       4000,       700,    150,    0,      1,      0,      0,      2,      2,      1,      50,     1,      {},     {bonus bAgi, 8; bonus bDex, 7; bonus bLuk, 6;}
3658,   CajadoDeGelo5,              4,      8000,       4000,       700,    160,    0,      1,      0,      0,      2,      2,      1,      50,     1,      {},     {bonus bAgi, 8; bonus bDex, 7; bonus bLuk, 6;}
3659,   CajadoDeGelo6,              4,      8000,       4000,       700,    170,    0,      1,      0,      0,      2,      2,      1,      50,     1,      {},     {bonus bAgi, 8; bonus bDex, 7; bonus bLuk, 6;}
3660,   CajadoDeGelo7,              4,      8000,       4000,       700,    180,    0,      1,      0,      0,      2,      2,      1,      50,     1,      {},     {bonus bAgi, 8; bonus bDex, 7; bonus bLuk, 6;}
3661,   CajadoDeGelo8,              4,      8000,       4000,       700,    190,    0,      1,      0,      0,      2,      2,      1,      50,     1,      {},     {bonus bAgi, 8; bonus bDex, 7; bonus bLuk, 6;}
3662,   CajadoDeGelo9,              4,      8000,       4000,       700,    200,    0,      1,      0,      0,      2,      2,      1,      50,     1,      {},     {bonus bAgi, 8; bonus bDex, 7; bonus bLuk, 6;}
3663,   EspadaDemoniaca1,           4,      200000,     100000,     345,    185,    0,      1,      0,      0,      2,      2,      1,      80,     1,      {},     {}
3664,   EspadaDemoniaca2,           4,      200000,     100000,     345,    195,    0,      1,      0,      0,      2,      2,      1,      80,     1,      {},     {}
3665,   EspadaDemoniaca3,           4,      200000,     100000,     345,    205,    0,      1,      0,      0,      2,      2,      1,      80,     1,      {},     {}
3666,   EspadaDemoniaca4,           4,      200000,     100000,     345,    215,    0,      1,      0,      0,      2,      2,      1,      80,     1,      {},     {}
3667,   EspadaDemoniaca5,           4,      200000,     100000,     345,    225,    0,      1,      0,      0,      2,      2,      1,      80,     1,      {},     {}
3668,   EspadaDemoniaca6,           4,      200000,     100000,     345,    235,    0,      1,      0,      0,      2,      2,      1,      80,     1,      {},     {}
3669,   EspadaDemoniaca7,           4,      200000,     100000,     345,    245,    0,      1,      0,      0,      2,      2,      1,      80,     1,      {},     {}
3670,   EspadaDemoniaca8,           4,      200000,     100000,     345,    255,    0,      1,      0,      0,      2,      2,      1,      80,     1,      {},     {}
3671,   EspadaDemoniaca9,           4,      200000,     100000,     345,    265,    0,      1,      0,      0,      2,      2,      1,      80,     1,      {},     {}
3672,   FoiceDaMorte1,              4,      5000,       2500,       1600,   140,    0,      1,      0,      0,      2,      2,      1,      60,     3,      {},     {}
3673,   FoiceDaMorte2,              4,      5000,       2500,       1600,   150,    0,      1,      0,      0,      2,      2,      1,      60,     3,      {},     {}
3674,   FoiceDaMorte3,              4,      5000,       2500,       1600,   160,    0,      1,      0,      0,      2,      2,      1,      60,     3,      {},     {}
3675,   FoiceDaMorte4,              4,      5000,       2500,       1600,   170,    0,      1,      0,      0,      2,      2,      1,      60,     3,      {},     {}
3676,   FoiceDaMorte5,              4,      5000,       2500,       1600,   180,    0,      1,      0,      0,      2,      2,      1,      60,     3,      {},     {}
3677,   FoiceDaMorte6,              4,      5000,       2500,       1600,   190,    0,      1,      0,      0,      2,      2,      1,      60,     3,      {},     {}
3678,   FoiceDaMorte7,              4,      5000,       2500,       1600,   200,    0,      1,      0,      0,      2,      2,      1,      60,     3,      {},     {}
3679,   FoiceDaMorte8,              4,      5000,       2500,       1600,   210,    0,      1,      0,      0,      2,      2,      1,      60,     3,      {},     {}
3680,   FoiceDaMorte9,              4,      5000,       2500,       1600,   220,    0,      1,      0,      0,      2,      2,      1,      60,     3,      {},     {}
3681,   RockKnife1,                 4,      15000,      7500,       3000,   310,    0,      1,      0,      0,      2,      34,     1,      90,     1,      {},     {}
3682,   RockKnife2,                 4,      15000,      7500,       3000,   320,    0,      1,      0,      0,      2,      34,     1,      90,     1,      {},     {}
3683,   RockKnife3,                 4,      15000,      7500,       3000,   330,    0,      1,      0,      0,      2,      34,     1,      90,     1,      {},     {}
3684,   RockKnife4,                 4,      15000,      7500,       3000,   340,    0,      1,      0,      0,      2,      34,     1,      90,     1,      {},     {}
3685,   RockKnife5,                 4,      15000,      7500,       3000,   350,    0,      1,      0,      0,      2,      34,     1,      90,     1,      {},     {}
3686,   RockKnife6,                 4,      15000,      7500,       3000,   360,    0,      1,      0,      0,      2,      34,     1,      90,     1,      {},     {}
3687,   RockKnife7,                 4,      15000,      7500,       3000,   370,    0,      1,      0,      0,      2,      34,     1,      90,     1,      {},     {}
3688,   RockKnife8,                 4,      15000,      7500,       3000,   380,    0,      1,      0,      0,      2,      34,     1,      90,     1,      {},     {}
3689,   RockKnife9,                 4,      15000,      7500,       3000,   390,    0,      1,      0,      0,      2,      34,     1,      90,     1,      {},     {}
3690,   EspadaPetrificada1,         4,      10000,      5000,       1800,   150,    0,      1,      0,      0,      2,      2,      1,      60,     3,      {},     {}
3691,   EspadaPetrificada2,         4,      10000,      5000,       1800,   160,    0,      1,      0,      0,      2,      2,      1,      60,     3,      {},     {}
3692,   EspadaPetrificada3,         4,      10000,      5000,       1800,   170,    0,      1,      0,      0,      2,      2,      1,      60,     3,      {},     {}
3693,   EspadaPetrificada4,         4,      10000,      5000,       1800,   180,    0,      1,      0,      0,      2,      2,      1,      60,     3,      {},     {}
3694,   EspadaPetrificada5,         4,      10000,      5000,       1800,   190,    0,      1,      0,      0,      2,      2,      1,      60,     3,      {},     {}
3695,   EspadaPetrificada6,         4,      10000,      5000,       1800,   200,    0,      1,      0,      0,      2,      2,      1,      60,     3,      {},     {}
3696,   EspadaPetrificada7,         4,      10000,      5000,       1800,   210,    0,      1,      0,      0,      2,      2,      1,      60,     3,      {},     {}
3697,   EspadaPetrificada8,         4,      10000,      5000,       1800,   220,    0,      1,      0,      0,      2,      2,      1,      60,     3,      {},     {}
3698,   EspadaPetrificada9,         4,      10000,      5000,       1800,   230,    0,      1,      0,      0,      2,      2,      1,      60,     3,      {},     {}
3699,   ZambacutouDePedra1,         4,      175000,     97500,      2500,   170,    0,      1,      0,      0,      2,      34,     1,      75,     1,      {},     {bonus bVit, 1;}
3700,   ZambacutouDePedra2,         4,      175000,     97500,      2500,   180,    0,      1,      0,      0,      2,      34,     1,      75,     1,      {},     {bonus bVit, 1;}
3701,   ZambacutouDePedra3,         4,      175000,     97500,      2500,   190,    0,      1,      0,      0,      2,      34,     1,      75,     1,      {},     {bonus bVit, 1;}
3702,   ZambacutouDePedra4,         4,      175000,     97500,      2500,   200,    0,      1,      0,      0,      2,      34,     1,      75,     1,      {},     {bonus bVit, 1;}
3703,   ZambacutouDePedra5,         4,      175000,     97500,      2500,   210,    0,      1,      0,      0,      2,      34,     1,      75,     1,      {},     {bonus bVit, 1;}
3704,   ZambacutouDePedra6,         4,      175000,     97500,      2500,   220,    0,      1,      0,      0,      2,      34,     1,      75,     1,      {},     {bonus bVit, 1;}
3705,   ZambacutouDePedra7,         4,      175000,     97500,      2500,   230,    0,      1,      0,      0,      2,      34,     1,      75,     1,      {},     {bonus bVit, 1;}
3706,   ZambacutouDePedra8,         4,      175000,     97500,      2500,   240,    0,      1,      0,      0,      2,      34,     1,      75,     1,      {},     {bonus bVit, 1;}
3707,   ZambacutouDePedra9,         4,      175000,     97500,      2500,   250,    0,      1,      0,      0,      2,      34,     1,      75,     1,      {},     {bonus bVit, 1;}
3708,   Arco1,                      4,      1000,       500,        20,     25,     0,      5,      0,      0,      2,      34,     1,      1,      11,     {},     {}
3709,   Arco2,                      4,      1000,       500,        20,     30,     0,      5,      0,      0,      2,      34,     1,      1,      11,     {},     {}
3710,   Arco3,                      4,      1000,       500,        20,     35,     0,      5,      0,      0,      2,      34,     1,      1,      11,     {},     {}
3711,   Arco4,                      4,      1000,       500,        20,     40,     0,      5,      0,      0,      2,      34,     1,      1,      11,     {},     {}
3712,   Arco5,                      4,      1000,       500,        20,     45,     0,      5,      0,      0,      2,      34,     1,      1,      11,     {},     {}
3713,   Arco6,                      4,      1000,       500,        20,     50,     0,      5,      0,      0,      2,      34,     1,      1,      11,     {},     {}
3714,   Arco7,                      4,      1000,       500,        20,     55,     0,      5,      0,      0,      2,      34,     1,      1,      11,     {},     {}
3715,   Arco8,                      4,      1000,       500,        20,     60,     0,      5,      0,      0,      2,      34,     1,      1,      11,     {},     {}
3716,   Arco9,                      4,      1000,       500,        20,     65,     0,      5,      0,      0,      2,      34,     1,      1,      11,     {},     {}
3717,   ArcoDeCurtoAlcance1,        4,      3000,       1500,       600,    55,     0,      4,      0,      0,      2,      34,     1,      20,     11,     {},     {}
3718,   ArcoDeCurtoAlcance2,        4,      3000,       1500,       600,    60,     0,      4,      0,      0,      2,      34,     1,      20,     11,     {},     {}
3719,   ArcoDeCurtoAlcance3,        4,      3000,       1500,       600,    65,     0,      4,      0,      0,      2,      34,     1,      20,     11,     {},     {}
3720,   ArcoDeCurtoAlcance4,        4,      3000,       1500,       600,    70,     0,      4,      0,      0,      2,      34,     1,      20,     11,     {},     {}
3721,   ArcoDeCurtoAlcance5,        4,      3000,       1500,       600,    75,     0,      4,      0,      0,      2,      34,     1,      20,     11,     {},     {}
3722,   ArcoDeCurtoAlcance6,        4,      3000,       1500,       600,    80,     0,      4,      0,      0,      2,      34,     1,      20,     11,     {},     {}
3723,   ArcoDeCurtoAlcance7,        4,      3000,       1500,       600,    85,     0,      4,      0,      0,      2,      34,     1,      20,     11,     {},     {}
3724,   ArcoDeCurtoAlcance8,        4,      3000,       1500,       600,    90,     0,      4,      0,      0,      2,      34,     1,      20,     11,     {},     {}
3725,   ArcoDeCurtoAlcance9,        4,      3000,       1500,       600,    95,     0,      4,      0,      0,      2,      34,     1,      20,     11,     {},     {}
3726,   ArcoDaFloresta1,            4,      5000,       2500,       1200,   75,     0,      5,      0,      0,      2,      34,     1,      30,     11,     {},     {}
3727,   ArcoDaFloresta2,            4,      5000,       2500,       1200,   80,     0,      5,      0,      0,      2,      34,     1,      30,     11,     {},     {}
3728,   ArcoDaFloresta3,            4,      5000,       2500,       1200,   85,     0,      5,      0,      0,      2,      34,     1,      30,     11,     {},     {}
3729,   ArcoDaFloresta4,            4,      5000,       2500,       1200,   90,     0,      5,      0,      0,      2,      34,     1,      30,     11,     {},     {}
3730,   ArcoDaFloresta5,            4,      5000,       2500,       1200,   95,     0,      5,      0,      0,      2,      34,     1,      30,     11,     {},     {}
3731,   ArcoDaFloresta6,            4,      5000,       2500,       1200,   100,    0,      5,      0,      0,      2,      34,     1,      30,     11,     {},     {}
3732,   ArcoDaFloresta7,            4,      5000,       2500,       1200,   105,    0,      5,      0,      0,      2,      34,     1,      30,     11,     {},     {}
3733,   ArcoDaFloresta8,            4,      5000,       2500,       1200,   110,    0,      5,      0,      0,      2,      34,     1,      30,     11,     {},     {}
3734,   ArcoDaFloresta9,            4,      5000,       2500,       1200,   115,    0,      5,      0,      0,      2,      34,     1,      30,     11,     {},     {}
3735,   ArcoDoDeserto1,             4,      8000,       4000,       1150,   105,    0,      7,      0,      0,      2,      34,     1,      45,     11,     {},     {}
3736,   ArcoDoDeserto2,             4,      8000,       4000,       1150,   110,    0,      7,      0,      0,      2,      34,     1,      45,     11,     {},     {}
3737,   ArcoDoDeserto3,             4,      8000,       4000,       1150,   115,    0,      7,      0,      0,      2,      34,     1,      45,     11,     {},     {}
3738,   ArcoDoDeserto4,             4,      8000,       4000,       1150,   120,    0,      7,      0,      0,      2,      34,     1,      45,     11,     {},     {}
3739,   ArcoDoDeserto5,             4,      8000,       4000,       1150,   125,    0,      7,      0,      0,      2,      34,     1,      45,     11,     {},     {}
3740,   ArcoDoDeserto6,             4,      8000,       4000,       1150,   130,    0,      7,      0,      0,      2,      34,     1,      45,     11,     {},     {}
3741,   ArcoDoDeserto7,             4,      8000,       4000,       1150,   135,    0,      7,      0,      0,      2,      34,     1,      45,     11,     {},     {}
3742,   ArcoDoDeserto8,             4,      8000,       4000,       1150,   140,    0,      7,      0,      0,      2,      34,     1,      45,     11,     {},     {}
3743,   ArcoDoDeserto9,             4,      8000,       4000,       1150,   145,    0,      7,      0,      0,      2,      34,     1,      45,     11,     {},     {}
3744,   ArcoDosReis1,               4,      10000,      5000,       1400,   165,    0,      6,      0,      0,      2,      34,     1,      90,     11,     {},     {}
3745,   ArcoDosReis2,               4,      10000,      5000,       1400,   170,    0,      6,      0,      0,      2,      34,     1,      90,     11,     {},     {}
3746,   ArcoDosReis3,               4,      10000,      5000,       1400,   175,    0,      6,      0,      0,      2,      34,     1,      90,     11,     {},     {}
3747,   ArcoDosReis4,               4,      10000,      5000,       1400,   180,    0,      6,      0,      0,      2,      34,     1,      90,     11,     {},     {}
3748,   ArcoDosReis5,               4,      10000,      5000,       1400,   185,    0,      6,      0,      0,      2,      34,     1,      90,     11,     {},     {}
3749,   ArcoDosReis6,               4,      10000,      5000,       1400,   190,    0,      6,      0,      0,      2,      34,     1,      90,     11,     {},     {}
3750,   ArcoDosReis7,               4,      10000,      5000,       1400,   195,    0,      6,      0,      0,      2,      34,     1,      90,     11,     {},     {}
3751,   ArcoDosReis8,               4,      10000,      5000,       1400,   200,    0,      6,      0,      0,      2,      34,     1,      90,     11,     {},     {}
3752,   ArcoDosReis9,               4,      10000,      5000,       1400,   205,    0,      6,      0,      0,      2,      34,     1,      90,     11,     {},     {}
4044,   TwinBlade,                  4,      115000,     57500,      1200,   183,    0,      1,      0,      0,      2,      34,     1,      50,     1,      {},     {}
