//ID,   Name,                   Jname,                  LV,     HP,     SP,     EXP,    JEXP,   Range1, ATK1,   ATK2,   DEF,    MDEF,   STR,    AGI,    VIT,    INT,    DEX,    LUK,    Range2, Range3, Scale,  Race,   Element,Mode,   Speed,  Adelay, Amotion,Dmotion,Drop1id,Drop1per,Drop2id,Drop2%, Drop3id,Drop3%, Drop4id,Drop4%, Drop5id,Drop5%, Drop6id,Drop6%, Drop7id,Drop7%, Drop8id,Drop8%, Item1,  Item2,  MEXP,   ExpPer, MVP1id, MVP1per,MVP2id, MVP2per,MVP3id, MVP3per,mutationcount,mutationstrength
1005,   limoalgaverde,          Limo Alga-Verde,            40,     300,        0,      0,      8,      1,      25,     30,     2,      7,      1,      20,     1,      1,      30,     30,     1,      1,      1,      0,      21,     131,    1500,   1872,   672,    480,    502,    200,    513,    100,    501,    100,    521,    100,    522,    190,    3160,   100,    503,    500,    535,    750,    0,      0,      0,      0,      0,      0,      0,      0,      0,      0,      1,      20
1016,   limoRodolfo,            Limo Rodolfo,               50,     350,        0,      0,      16,     1,      30,     35,     10,     7,      1,      20,     1,      1,      30,     30,     1,      1,      1,      0,      21,     131,    1000,   1872,   672,    480,    504,    800,    506,    500,    3163,   100,    509,    300,    510,    600,    515,    800,    516,    500,    512,    500,    0,      0,      0,      0,      0,      0,      0,      0,      0,      0,      2,      30
1039,   piron,                  Piron,                      50,     700,        0,      0,      800,    3,      50,     75,     30,     0,      20,     15,     40,     1,      15,     10,     1,      1,      1,      3,      21,     141,    800,    1872,   672,    480,    676,    500,    562,    300,    3042,   4,      0,      0,      0,      0,      0,      0,      0,      0,      0,      0,      0,      0,      0,      0,      0,      0,      0,      0,      0,      0,      0,      0
1328,   jazidaPrata,            Jazida,                     40,     4,          0,      0,      1,      1,      0,      0,      0,      0,      1,      1,      1,      1,      1,      1,      1,      1,      1,      3,      22,     64,     800,    800,    672,    480, 3137,   9500,      0,      0,      0,      0,      0,      0,      0,      0,      0,      0,      0,      0,      0,      0,      0,      0,      0,      0,      0,      0,      0,      0,      0,      0,      1,      50
1329,   jazidaOuro,             Jazida,                     50,     5,          0,      0,      1,      1,      0,      0,      0,      0,      1,      1,      1,      1,      1,      1,      1,      1,      1,      3,      22,     64,     800,    800,    672,    480, 3138,   9500,      0,      0,      0,      0,      0,      0,      0,      0,      0,      0,      0,      0,      0,      0,      0,      0,      0,      0,      0,      0,      0,      0,      0,      0,      1,      50
1343,   tartarugaNegra,         Tartaruga Negra,            40,     600,        0,      0,      30,     1,      30,     40,     55,     5,      30,     10,     50,     1,      40,     20,     1,      1,      1,      3,      22,     129,    1500,   1872,   672,    480,    3297,   2000,   3297,   1000,   3295,   1000,   0,      0,      0,      0,      0,      0,      0,      0,      0,      0,      0,      0,      0,      0,      0,      0,      0,      0,      0,      0,      1,      50
1344,   tartarugaSangrenta,     Tartaruga Sangrenta,        50,     700,        0,      0,      30,     1,      45,     55,     60,     5,      40,     10,     50,     1,      50,     15,     1,      1,      1,      3,      22,     129,    1500,   1872,   672,    480,    3298,   2000,   3298,   1000,   3294,   1000,   0,      0,      0,      0,      0,      0,      0,      0,      0,      0,      0,      0,      0,      0,      0,      0,      0,      0,      0,      0,      1,      50
1346,   trevasOcultas,          Trevas Ocultas,             50,     100,        0,      0,      110,    12,     60,     75,     1,      5,      30,     12,     30,     20,     50,     50,     2,      2,      1,      3,      22,     132,    800,    800,    672,    480,    3302,   300,    3345,   2500,   0,      0,      0,      0,      0,      0,      0,      0,      0,      0,      0,      0,      0,      0,      0,      0,      0,      0,      0,      0,      0,      0,      2,      50
1348,   morcegoNegro,           Morcego Negro,              40,     400,        0,      0,      2,      1,      20,     35,     10,     10,     20,     20,     20,     1,      20,     25,     1,      1,      1,      3,      24,     137,    800,    1872,   672,    480,    1281,   150,    3339,   3000,   3341,   2000,   3302,   300,    3347,   1000,   0,      0,      0,      0,      0,      0,      0,      0,      0,      0,      0,      0,      0,      0,      0,      0,      2,      40
1360,   lesmaCarnivora,         Lesma Carnivora,            45,     550,        0,      0,      2,      1,      30,     45,     6,      5,      30,     20,     30,     9,      25,     10,     1,      1,      1,      3,      21,     129,    800,    1872,   672,    480,    505,    1000,   3349,   500,    3343,   2500,   3302,   300,    0,      0,      0,      0,      0,      0,      0,      0,      0,      0,      0,      0,      0,      0,      0,      0,      0,      0,      0,      0
1363,   lencolFantasma,         Lencol Fantasma,            45,     550,        0,      0,      2,      1,      30,     45,     6,      5,      30,     20,     30,     9,      25,     10,     1,      1,      1,      3,      21,     133,    350,    1872,   672,    480,    3352,   3000,   3352,   3000,   0,      0,      0,      0,      0,      0,      0,      0,      0,      0,      0,      0,      0,      0,      0,      0,      0,      0,      0,      0,      0,      0,      0,      0
1391,   limomasmorra,           Limo Masmorra,              40,     300,        0,      0,      8,      1,      25,     30,     2,      7,      1,      20,     1,      1,      30,     30,     1,      1,      1,      0,      21,     135,    1300,   1500,   672,    480,    3162,   100,    509,    110,    521,    200,    523,    80,     525,    80,     535,    750,    528,    250,    531,    150,    0,      0,      0,      0,      0,      0,      0,      0,      0,      0,      2,      20
