005,38,94|warp|0,0,005-3,46,155
005,25,94|warp|0,0,005-3,24,155
005,31,88|warp|0,0,005-3,35,145
005,71,25|warp|1,0,005-3,85,21
005,62,25|warp|1,0,005-3,71,21
005,159,23|warp|0,0,005-4,33,34
005,154,23|warp|0,0,005-4,26,34
005,62,86|warp|1,0,005-1,54,78
005,39,87|warp|0,0,005-3,49,143
005,22,19|warp|1,0,002,21,118
005,178,19|warp|1,0,002,177,118
005,48,24|warp|0,0,005-3,29,54
005,100,124|warp|7,0,008,99,25
